<?xml version="1.0" encoding="iso-8859-1"?>
<!-- Generator: Adobe Illustrator 16.0.0, SVG Export Plug-In . SVG Version: 6.00 Build 0)  -->
<!DOCTYPE svg PUBLIC "-//W3C//DTD SVG 1.1//EN" "http://www.w3.org/Graphics/SVG/1.1/DTD/svg11.dtd">
<svg version="1.1" id="Layer_1" xmlns="http://www.w3.org/2000/svg" xmlns:xlink="http://www.w3.org/1999/xlink" x="0px" y="0px"
	 width="612px" height="792px" viewBox="0 0 612 792" style="enable-background:new 0 0 612 792;" xml:space="preserve">
<g>
	<path d="M29.368,64c149,0,253,54,253,103c0,48-104,102-253,102s-253-54-253-102C-223.632,118-119.632,64,29.368,64L29.368,64
		L29.368,64z M-173.632,274c55,25,127,38,203,38c77,0,149-13,203-38c60-27,93-65,93-107s-33-81-93-108c-54-24-126-38-203-38
		c-76,0-148,14-203,38c-59,27-93,66-93,108S-232.632,247-173.632,274L-173.632,274L-173.632,274z M-158.632,427c52,20,119,31,188,31
		s136-11,189-31c57-21,94-51,107-86c4-11-1-23-12-27c-12-5-24,1-28,12c-9,22-39,45-82,61c-48,18-110,28-174,28c-138,0-238-45-255-89
		c-4-11-17-17-28-12c-11,4-16,16-12,27C-252.632,376-215.632,406-158.632,427L-158.632,427L-158.632,427z M580.368,377
		c149,0,253,54,253,103c0,24-25,48-68,68c-49,22-114,34-185,34c-70,0-136-12-185-34c-43-20-68-44-68-68
		C327.368,431,431.368,377,580.368,377L580.368,377L580.368,377z M377.368,587c55,25,127,38,203,38c77,0,149-13,203-38
		c60-27,93-65,93-107s-33-80-93-107c-54-25-126-39-203-39c-76,0-148,14-203,39c-56,25-89,60-92,99c-9,23-39,45-82,61
		c-48,18-110,28-174,28c-138,0-238-45-255-89c-4-11-17-17-28-12c-11,4-16,16-12,28c13,34,50,64,107,85c52,20,119,31,188,31
		s136-11,189-31c34-13,62-29,81-47C314.368,549,340.368,570,377.368,587L377.368,587L377.368,587z M392.368,740c52,20,119,31,188,31
		s136-11,189-31c57-21,93-51,107-85c4-12-2-24-13-28s-23,1-27,12c-9,23-39,45-82,61c-48,18-110,28-174,28c-138,0-238-45-255-89
		c-4-11-17-16-28-12s-16,16-12,28C298.368,689,335.368,719,392.368,740L392.368,740z"/>
</g>
</svg>
