<?xml version="1.0" encoding="iso-8859-1"?>
<!-- Generator: Adobe Illustrator 16.0.0, SVG Export Plug-In . SVG Version: 6.00 Build 0)  -->
<!DOCTYPE svg PUBLIC "-//W3C//DTD SVG 1.1//EN" "http://www.w3.org/Graphics/SVG/1.1/DTD/svg11.dtd">
<svg version="1.1" id="Layer_1" xmlns="http://www.w3.org/2000/svg" xmlns:xlink="http://www.w3.org/1999/xlink" x="0px" y="0px"
	 width="612px" height="792px" viewBox="0 0 612 792" style="enable-background:new 0 0 612 792;" xml:space="preserve">
<g>
	<path d="M183,423c15,5,36,8,57,8c22,0,43-3,58-8c19-7,28-16,28-28s-9-22-28-28c-15-6-36-8-58-8c-21,0-42,2-57,8c-19,6-28,16-28,28
		S164,416,183,423L183,423L183,423z M240,407c-35,0-55-8-60-12c4-4,24-12,60-12s56,8,61,12C297,398,277,407,240,407L240,407L240,407
		z M240,475c29,0,67-6,81-22c4-5,3-13-2-17c-2-2-5-3-8-3s-7,2-9,4c-5,6-27,14-62,14c-34,0-57-8-61-14c-2-2-6-4-9-4s-6,1-8,3
		c-3,2-4,5-5,8c0,4,1,7,3,9C174,469,212,475,240,475L240,475L240,475z M299,484c-3,1-7,3-11,4c-12,4-29,7-48,7c-37,0-58-10-61-14
		c-2-2-6-4-9-4s-6,1-8,3c-3,2-4,5-5,8c0,3,1,7,3,9c14,16,52,22,80,22c19,0,36-2,51-6c10,19,51,26,83,26c22,0,42-3,58-8
		c18-6,28-16,28-28s-10-21-28-28c-16-5-36-8-58-8c-32,0-60,6-74,16L299,484L299,484z M374,515c-36,0-55-8-60-12c10-8,38-12,60-12
		c36,0,56,8,61,12C430,507,411,515,374,515L374,515L374,515z M453,544c-2-2-5-3-8-3s-7,2-9,5c-5,5-28,13-62,13s-57-8-61-13
		c-3-3-6-5-10-5c-3,0-5,1-8,3c-2,2-4,5-4,9c0,3,1,6,3,8c14,17,52,22,80,22c29,0,67-5,80-22c2-2,3-5,3-8C457,549,455,546,453,544
		L453,544L453,544z M675,728H-63c-12,0-22,10-22,22s10,22,22,22h738c12,0,22-10,22-22S687,728,675,728L675,728L675,728z M684,194
		L316,23c-3-2-6-3-10-3s-7,1-10,3L-72,194c-8,4-13,12-13,20v44c0,12,10,22,22,22h32v379h-32c-12,0-22,10-22,22s10,22,22,22h738
		c12,0,22-10,22-22s-10-22-22-22h-32V280h32c12,0,22-10,22-22v-44C697,206,692,198,684,194L684,194L684,194z M13,280h49v379H13V280
		L13,280z M505,280v379H106V280H505L505,280z M221,236c9-37,44-64,85-64s76,27,84,64H221L221,236z M599,659h-50V280h50V659L599,659z
		 M653,236H435c-9-61-63-108-129-108s-120,47-129,108H-41v-8L306,66l347,162V236L653,236z"/>
</g>
</svg>
