<?xml version="1.0" encoding="iso-8859-1"?>
<!-- Generator: Adobe Illustrator 16.0.0, SVG Export Plug-In . SVG Version: 6.00 Build 0)  -->
<!DOCTYPE svg PUBLIC "-//W3C//DTD SVG 1.1//EN" "http://www.w3.org/Graphics/SVG/1.1/DTD/svg11.dtd">
<svg version="1.1" id="Layer_1" xmlns="http://www.w3.org/2000/svg" xmlns:xlink="http://www.w3.org/1999/xlink" x="0px" y="0px"
	 width="612px" height="792px" viewBox="0 0 612 792" style="enable-background:new 0 0 612 792;" xml:space="preserve">
<g>
	<path d="M9,625c12,0,21-10,21-22s-9-21-21-21c-58,0-101-51-101-121c0-63,46-81,48-81l-14-41c-2,1-21,7-39,26c-17,17-38,47-38,96
		c0,45,14,85,40,115C-69,607-32,625,9,625L9,625L9,625z M655,380c1,0,48,16,48,81c0,70-42,121-101,121c-12,0-21,9-21,21s9,22,21,22
		c41,0,78-18,104-49c26-30,40-70,40-115c0-49-20-79-38-96c-18-19-37-25-39-26c-11-4-23,2-27,13C638,364,644,376,655,380L655,380
		L655,380z M33,221c-21,23-46,66-46,138c0,30,7,58,20,85c11,26,28,49,49,69c42,40,96,63,148,63c12,0,21-10,21-22s-9-21-21-21
		c-41,0-85-19-118-51c-36-34-56-78-56-123c0-46,12-84,35-109c18-19,42-31,66-31c26,0,51,13,51,43c0,12,10,21,22,21s21-9,21-21
		c0-50-39-86-94-86C95,176,59,193,33,221L33,221L33,221z M301,21c-12,0-21,9-21,21v66h-76c-12,0-22,10-22,21c0,12,10,22,22,22h76
		v310c0,12,9,22,21,22s22-10,22-22V151h76c12,0,21-10,21-22c0-11-9-21-21-21h-76V42C323,30,313,21,301,21L301,21L301,21z M517,482
		c-34,32-78,51-118,51c-12,0-22,9-22,21s10,22,22,22c52,0,106-23,148-63c21-20,37-43,49-69c13-27,19-55,19-85c0-72-25-115-46-138
		c-26-28-61-45-98-45c-54,0-94,36-94,86c0,12,10,21,22,21s21-9,21-21c0-30,26-43,51-43s49,12,66,31c23,25,35,63,35,109
		C572,404,553,448,517,482L517,482L517,482z M654,696c10,0,19-7,21-18s-6-22-18-24c-1-1-147-24-356-24s-354,23-356,24
		c-11,2-19,13-17,24c1,11,10,18,21,18h3c49-8,185-23,349-23c165,0,301,15,349,23H654L654,696z M301,728H5c-12,0-22,9-22,21
		s10,22,22,22h296h297c12,0,22-10,22-22s-10-21-22-21H301L301,728z"/>
</g>
</svg>
