<?xml version="1.0" encoding="iso-8859-1"?>
<!-- Generator: Adobe Illustrator 16.0.0, SVG Export Plug-In . SVG Version: 6.00 Build 0)  -->
<!DOCTYPE svg PUBLIC "-//W3C//DTD SVG 1.1//EN" "http://www.w3.org/Graphics/SVG/1.1/DTD/svg11.dtd">
<svg version="1.1" id="Layer_1" xmlns="http://www.w3.org/2000/svg" xmlns:xlink="http://www.w3.org/1999/xlink" x="0px" y="0px"
	 width="612px" height="792px" viewBox="0 0 612 792" style="enable-background:new 0 0 612 792;" xml:space="preserve">
<g>
	<path d="M469.145,383c-23-20-48-36-72-48c-31-15-62-22-92-22c-30,0-61,7-92,22c-24,12-49,28-73,48c-40,34-65,68-66,70
		c-5,7-5,17,0,25c1,1,26,35,66,69c24,20,49,37,73,48c31,15,62,23,92,23c30,0,61-8,92-23c24-11,49-28,72-48c41-34,66-68,67-69
		c5-8,5-18,0-25C535.145,451,510.145,417,469.145,383L469.145,383L469.145,383z M305.144,575c-84,0-159-78-186-110
		c27-31,102-109,186-109c84,0,159,78,186,109C464.145,497,389.145,575,305.144,575L305.144,575L305.144,575z M305.144,402
		c-35,0-63,28-63,63s28,63,63,63c35,0,63-28,63-63S340.145,402,305.144,402L305.144,402L305.144,402z M305.144,485c-11,0-20-9-20-20
		s9-20,20-20c11,0,20,9,20,20S316.145,485,305.144,485L305.144,485L305.144,485z M283.144,196v83c0,12,10,22,22,22c12,0,21-10,21-22
		v-83c0-12-9-21-21-21C293.144,175,283.144,184,283.144,196L283.144,196L283.144,196z M121.144,221c-10,6-13,20-7,30l41,69
		c4,7,12,11,19,11c4,0,7-1,11-4c10-6,13-19,7-29l-41-69C145.144,219,132.144,215,121.144,221L121.144,221L121.144,221z M86.144,401
		c7-9,5-23-4-30l-62-44c-10-7-23-5-30,4c-7,10-5,23,5,30l61,45c4,3,9,4,13,4C76.144,410,82.144,407,86.144,401L86.144,401
		L86.144,401z M425.145,327c3,3,7,4,11,4c7,0,14-4,18-11l42-69c6-10,3-24-8-30c-10-6-23-2-29,8l-42,69
		C411.145,308,415.145,321,425.145,327L425.145,327L425.145,327z M590.145,327l-62,44c-10,7-12,21-5,30c5,6,11,9,18,9c4,0,9-1,12-4
		l62-45c10-7,12-20,5-30C613.145,322,599.145,320,590.145,327L590.145,327z"/>
</g>
</svg>
