<?xml version="1.0" encoding="iso-8859-1"?>
<!-- Generator: Adobe Illustrator 16.0.0, SVG Export Plug-In . SVG Version: 6.00 Build 0)  -->
<!DOCTYPE svg PUBLIC "-//W3C//DTD SVG 1.1//EN" "http://www.w3.org/Graphics/SVG/1.1/DTD/svg11.dtd">
<svg version="1.1" id="Layer_1" xmlns="http://www.w3.org/2000/svg" xmlns:xlink="http://www.w3.org/1999/xlink" x="0px" y="0px"
	 width="612px" height="792px" viewBox="0 0 612 792" style="enable-background:new 0 0 612 792;" xml:space="preserve">
<g>
	<path d="M-114,437c23-54,56-103,98-144c42-42,90-75,145-98c56-24,115-36,177-36c61,0,121,12,177,36c54,23,103,56,145,98
		c42,41,74,90,97,144c24,56,36,116,36,177c-1,10-6,32-14,32h-882c-8,0-14-21-15-32C-149,553-137,493-114,437L-114,437L-114,437z
		 M-186,648c13,35,37,41,51,41h882c13,0,37-6,50-41c6-15,7-30,7-32v-1c0-68-13-133-39-194c-25-60-61-113-107-159s-99-81-158-107
		c-55-23-113-36-173-38V88c10-6,16-17,16-30c0-20-17-37-37-37c-21,0-37,17-37,37c0,13,6,24,15,30v29c-59,2-117,15-172,38
		C53,181-1,216-47,262c-45,46-81,99-106,159c-26,61-40,126-40,194c0,0,0,1,1,1C-192,618-191,633-186,648L-186,648L-186,648z
		 M800,729h-988c-12,0-22,9-22,21s10,22,22,22h988c12,0,21-10,21-22S812,729,800,729L800,729z"/>
</g>
</svg>
