<?xml version="1.0" encoding="iso-8859-1"?>
<!-- Generator: Adobe Illustrator 16.0.0, SVG Export Plug-In . SVG Version: 6.00 Build 0)  -->
<!DOCTYPE svg PUBLIC "-//W3C//DTD SVG 1.1//EN" "http://www.w3.org/Graphics/SVG/1.1/DTD/svg11.dtd">
<svg version="1.1" id="Layer_1" xmlns="http://www.w3.org/2000/svg" xmlns:xlink="http://www.w3.org/1999/xlink" x="0px" y="0px"
	 width="612px" height="792px" viewBox="0 0 612 792" style="enable-background:new 0 0 612 792;" xml:space="preserve">
<g>
	<path d="M712.078,502.4c-11-6-24-3-30,7c-23,37-60,91-120,136c-72,55-158,83-257,83c-98,0-184-28-257-83c-59-45-97-99-119-136
		c-7-10-20-13-30-7c-10,7-13,20-7,30c25,39,65,98,130,147c80,61,175,92,283,92c108,0,203-31,283-92c66-49,106-108,130-147
		C725.078,522.4,722.078,509.4,712.078,502.4L712.078,502.4L712.078,502.4z M32.079,468.4c-6-10-19-12-29-6c-10,7-13,20-6,30
		c1,2,26,38,76,75c29,22,62,39,96,51c43,15,89,23,136,23c48,0,94-8,137-23c34-12,66-29,96-51c50-37,75-73,76-75c6-10,4-23-6-30
		c-10-6-23-4-30,6c0,0-22,33-67,65c-26,19-55,34-85,45c-38,13-78,20-121,20c-42,0-83-7-120-20c-31-11-59-26-85-45
		C55.079,501.4,33.079,469.4,32.079,468.4L32.079,468.4L32.079,468.4z M305.079,502.4c90,0,162-73,162-162c0-113-60-231-162-314
		c-6-6-15-7-23-3c-7,3-12,11-12,19c0,76-30,111-62,149c-32,37-65,76-65,149C143.079,429.4,216.079,502.4,305.079,502.4
		L305.079,502.4L305.079,502.4z M240.079,219.4c28-33,59-69,69-131c73,72,115,164,115,252c0,65-53,119-119,119c-65,0-119-54-119-119
		C186.079,283.4,211.079,253.4,240.079,219.4L240.079,219.4z"/>
</g>
</svg>
