<?xml version="1.0" encoding="iso-8859-1"?>
<!-- Generator: Adobe Illustrator 16.0.0, SVG Export Plug-In . SVG Version: 6.00 Build 0)  -->
<!DOCTYPE svg PUBLIC "-//W3C//DTD SVG 1.1//EN" "http://www.w3.org/Graphics/SVG/1.1/DTD/svg11.dtd">
<svg version="1.1" id="Layer_1" xmlns="http://www.w3.org/2000/svg" xmlns:xlink="http://www.w3.org/1999/xlink" x="0px" y="0px"
	 width="612px" height="792px" viewBox="0 0 612 792" style="enable-background:new 0 0 612 792;" xml:space="preserve">
<g>
	<path d="M635.266,374l-103,115c-4,4-6,10-6,16l17,154c3,22-7,44-25,57c-11,8-24,12-37,12c-9,0-18-2-26-6l-140-63c-6-2-12-2-18,0
		l-141,63v1c-8,3-16,5-25,5c-14,0-26-4-37-12c-18-13-28-35-25-57l17-154c0-6-2-12-6-17l-104-114c-15-16-20-40-13-61s25-37,47-42
		l151-31c6-2,11-5,14-11l77-134c11-19,32-31,54-31s43,12,54,31l77,134c3,6,8,9,14,11l151,31c22,5,40,21,47,42
		S651.266,358,635.266,374L635.266,374L635.266,374z M690.266,300c-12-36-42-63-79-71l-142-29l-71-126c-19-33-54-53-92-53
		s-73,20-92,53l-71,126l-142,29c-37,8-67,35-79,71s-3,75,22,103l98,107l-16,144c-4,37,12,74,43,97c18,13,39,20,62,20c15,0,30-3,43-9
		l132-60l132,60c13,6,28,9,43,9c22,0,44-7,62-20c31-22,47-60,43-97l-16-144l97-107C693.266,375,701.266,336,690.266,300L690.266,300
		z"/>
</g>
</svg>
