<?xml version="1.0" encoding="iso-8859-1"?>
<!-- Generator: Adobe Illustrator 16.0.0, SVG Export Plug-In . SVG Version: 6.00 Build 0)  -->
<!DOCTYPE svg PUBLIC "-//W3C//DTD SVG 1.1//EN" "http://www.w3.org/Graphics/SVG/1.1/DTD/svg11.dtd">
<svg version="1.1" id="Layer_1" xmlns="http://www.w3.org/2000/svg" xmlns:xlink="http://www.w3.org/1999/xlink" x="0px" y="0px"
	 width="612px" height="792px" viewBox="0 0 612 792" style="enable-background:new 0 0 612 792;" xml:space="preserve">
<g>
	<path d="M479,475c-1-3-3-6-6-6l-136-37c0-24,1-51,1-62c0-39-23-53-28-55v-1h-2c-3-1-5-1-7,1c-6,3-27,16-27,55v62l-135,37
		c-3,0-5,3-6,6l-12,35c-1,2,0,5,2,7c2,3,4,4,7,3l146-19v70l-41,22c-2,1-4,4-4,7v16c0,3,1,6,3,7c2,2,4,2,6,2h2l57-9h13l57,9
		c3,1,6,0,8-2c2-1,3-4,3-7v-16c0-3-2-6-4-7l-41-22l1-70l145,19l1,1c5,0,9-4,9-9c0-2-1-3-1-4L479,475L479,475z M509,21H103
		c-34,0-62,27-62,62v101c0,4,1,8,3,12l15,22l-15,22c-2,3-3,7-3,12v457c0,34,28,62,62,62h406c34,0,61-28,62-62V252c0-5-2-9-4-12
		l-14-22l14-22c2-4,4-8,4-12V83v-1C570,48,543,21,509,21L509,21L509,21z M528,708v1c0,10-9,19-19,19H103c-11,0-19-9-19-19V258l12-19
		h29c12,0,21-9,21-21s-9-22-21-22H96l-12-18V83c0-11,8-19,19-19h406c10,0,19,8,19,19v95l-13,18h-28c-12,0-22,10-22,22s10,21,22,21
		h28l13,19V708L528,708z M342,239h72c12,0,22-9,22-21s-10-22-22-22h-72c-12,0-22,10-22,22S330,239,342,239L342,239L342,239z
		 M197,239h73c11,0,21-9,21-21s-10-22-21-22h-73c-12,0-21,10-21,22S185,239,197,239L197,239z"/>
</g>
</svg>
