<?xml version="1.0" encoding="iso-8859-1"?>
<!-- Generator: Adobe Illustrator 16.0.0, SVG Export Plug-In . SVG Version: 6.00 Build 0)  -->
<!DOCTYPE svg PUBLIC "-//W3C//DTD SVG 1.1//EN" "http://www.w3.org/Graphics/SVG/1.1/DTD/svg11.dtd">
<svg version="1.1" id="Layer_1" xmlns="http://www.w3.org/2000/svg" xmlns:xlink="http://www.w3.org/1999/xlink" x="0px" y="0px"
	 width="612px" height="792px" viewBox="0 0 612 792" style="enable-background:new 0 0 612 792;" xml:space="preserve">
<g>
	<path d="M616,730H-3c-15,0-27-12-27-26V514l178-199l212,220c5,4,10,7,16,7s12-3,16-7l60-67l122,140c4,5,10,7,16,7s12-2,16-7l37-41
		v137C643,718,631,730,616,730L616,730L616,730z M-30,90c0-14,12-27,27-27h619c15,0,27,13,27,27v415l-1-1l-51,58L468,421
		c-4-4-10-7-16-7s-12,2-16,7l-61,68L163,268c-4-4-10-7-16-6c-6,0-12,2-16,7L-30,450V90L-30,90z M616,20H-3c-39,0-70,32-70,70v408
		l-2,1l2,1v204c0,38,31,69,70,69h619c39,0,70-31,70-69V90C686,52,655,20,616,20L616,20L616,20z M426,184c29,0,53,24,53,54
		c0,29-24,53-53,53c-30,0-54-24-54-53C372,208,396,184,426,184L426,184L426,184z M426,334c53,0,96-43,96-96c0-54-43-97-96-97
		c-54,0-97,43-97,97C329,291,372,334,426,334L426,334z"/>
</g>
</svg>
