<?xml version="1.0" encoding="iso-8859-1"?>
<!-- Generator: Adobe Illustrator 16.0.0, SVG Export Plug-In . SVG Version: 6.00 Build 0)  -->
<!DOCTYPE svg PUBLIC "-//W3C//DTD SVG 1.1//EN" "http://www.w3.org/Graphics/SVG/1.1/DTD/svg11.dtd">
<svg version="1.1" id="Layer_1" xmlns="http://www.w3.org/2000/svg" xmlns:xlink="http://www.w3.org/1999/xlink" x="0px" y="0px"
	 width="612px" height="792px" viewBox="0 0 612 792" style="enable-background:new 0 0 612 792;" xml:space="preserve">
<g>
	<path d="M306,21C99,21-69,189-69,396S99,771,306,771s375-168,375-375S513,21,306,21L306,21L306,21z M656,396c0,47-9,93-28,136
		c-17,42-43,79-75,111s-69,58-111,75c-43,18-89,28-136,28s-93-10-136-28c-42-17-80-43-112-75S1,574-17,532c-18-43-27-89-27-136
		c0-48,9-93,27-137c18-41,43-79,75-111s70-57,112-75c43-18,89-27,136-27s93,9,136,27c42,18,79,43,111,75s58,70,75,111
		C647,303,656,348,656,396L656,396L656,396z M537,270l-228-52c-2-1-4-1-6,0L75,270h-1c-12,3-35,17-35,47c0,29,23,44,35,47h1l43,10
		v125c0,17,9,40,49,56c32,12,80,19,143,19c64,0,110-6,140-19c20-9,43-25,43-56V374l29-6v157c-5,3-8,9-8,15c0,11,9,20,20,20
		s20-9,20-20c0-6-3-12-7-15V360c11-6,25-20,25-43c0-30-22-44-34-47H537L537,270z M468,499c0,19-16,28-28,33c-27,11-70,17-130,17
		s-105-6-134-17c-22-9-33-20-33-33V380l160,36h3h3l159-36V499L468,499z M547,317c0,17-13,22-16,23l-225,51L81,340c-3-1-17-6-17-23
		s14-22,17-23l225-51l225,51c1,0,4,2,8,5C545,303,547,309,547,317L547,317z"/>
</g>
</svg>
