<?xml version="1.0" encoding="iso-8859-1"?>
<!-- Generator: Adobe Illustrator 16.0.0, SVG Export Plug-In . SVG Version: 6.00 Build 0)  -->
<!DOCTYPE svg PUBLIC "-//W3C//DTD SVG 1.1//EN" "http://www.w3.org/Graphics/SVG/1.1/DTD/svg11.dtd">
<svg version="1.1" id="Layer_1" xmlns="http://www.w3.org/2000/svg" xmlns:xlink="http://www.w3.org/1999/xlink" x="0px" y="0px"
	 width="612px" height="792px" viewBox="0 0 612 792" style="enable-background:new 0 0 612 792;" xml:space="preserve">
<g>
	<path d="M179,438l-38,20c-2,2-4,4-4,7v15c0,3,1,5,3,7c2,1,3,1,5,1h2l53-8h11l53,8c2,1,5,0,7-1c2-2,3-4,3-7v-15c0-3-2-5-4-7l-38-20
		l1-63l133,17h1c5,0,8-3,8-8c0-1,0-2-1-3l-10-31c-1-2-3-4-5-5l-125-34c1-22,1-47,1-57c0-35-21-48-25-50c0-1-1-1-1-1h-2c-2-1-4-1-6,1
		c-5,2-25,15-25,50c0,10,0,35,1,57L52,345c-2,1-4,3-5,5l-11,32c0,3,0,6,2,8s4,3,7,2l133-17L179,438L179,438z M559,165l-13-6
		c-13-48-54-85-104-92l-41-6c-24-25-57-40-92-40H103C33,21-24,78-24,148v395c0,67,53,123,119,126c6,4,13,8,19,11l189,81
		c16,7,33,10,51,10c50,0,96-30,116-77l156-362c13-31,14-66,1-97C615,203,590,178,559,165L559,165L559,165z M436,110
		c36,5,64,32,70,68c2,9,2,18,1,27l-50,340l-7,50c-1,2-1,3-1,4v2c-1,1-1,1-1,2s0,2-1,3c0,2,0,3-1,4c-4,12-10,22-19,31v1c-1,0-2,1-2,2
		c-1,0-1,0-1,1c-1,0-1,1-2,1l-1,1c-1,1-1,1-2,1c0,1-1,1-2,2c0,0,0,1-1,1s-1,1-2,1c0,1-1,1-1,1c-1,1-1,1-2,1c-1,1-1,1-2,1
		c0,1,0,1-1,1c-7,4-15,7-23,9c-1,0-2,1-3,1h-1h-3h-1c-1,1-2,1-3,1h-1h-3h-1h-2h-4h-1h-3h-1c-1,0-2-1-4-1l-10-1c53-16,92-65,92-122
		V148c0-9-1-18-4-28c0-4-1-8-3-11L436,110L436,110z M19,543V148c0-46,37-84,84-84h206c25,0,49,11,65,31c8,10,14,22,16,35
		c2,6,3,12,3,18v395c0,46-38,84-84,84H116h-13h-1C56,626,19,589,19,543L19,543L19,543z M354,728c-12,0-23-2-34-7l-58-25l86,13
		c6,1,13,1,19,1h2h1c16,0,32-4,46-10C401,718,378,728,354,728L354,728L354,728z M586,315l-79,185l42-289c0-1,0-2,1-3
		c17,9,30,24,37,42C596,271,595,294,586,315L586,315z"/>
</g>
</svg>
