<?xml version="1.0" encoding="iso-8859-1"?>
<!-- Generator: Adobe Illustrator 16.0.0, SVG Export Plug-In . SVG Version: 6.00 Build 0)  -->
<!DOCTYPE svg PUBLIC "-//W3C//DTD SVG 1.1//EN" "http://www.w3.org/Graphics/SVG/1.1/DTD/svg11.dtd">
<svg version="1.1" id="Layer_1" xmlns="http://www.w3.org/2000/svg" xmlns:xlink="http://www.w3.org/1999/xlink" x="0px" y="0px"
	 width="612px" height="792px" viewBox="0 0 612 792" style="enable-background:new 0 0 612 792;" xml:space="preserve">
<g>
	<path d="M306,21C98,21-69,189-69,396S98,771,306,771c207,0,375-168,375-375S513,21,306,21L306,21L306,21z M656,396
		c0,47-10,93-28,136c-18,42-43,79-75,111c-32,33-70,58-111,75c-43,19-89,28-136,28c-48,0-94-9-137-28c-41-17-79-42-111-75
		c-32-32-57-69-75-111c-18-43-27-89-27-136s9-93,27-136c18-42,43-79,75-112c32-32,70-57,111-75c43-18,89-27,137-27c47,0,93,9,136,27
		c41,18,79,43,111,75c32,33,57,70,75,112C646,303,656,349,656,396L656,396L656,396z M535,243h-36v-50c0-7-6-13-12-13
		c-111,0-162,36-181,56c-20-20-71-56-181-56c-7,0-13,6-13,13v50H77c-7,0-13,5-13,12v313c0,7,6,12,13,12h227h1h1h1h228
		c6,0,12-5,12-12V255C547,248,541,243,535,243L535,243L535,243z M350,234c38-21,86-27,124-29v50v238h-7h-2h-5c-1,1-2,1-3,1h-4h-3h-4
		c-1,1-2,1-2,1h-7c-2,1-4,1-6,1h-2c-1,1-3,1-4,1h-2c-2,0-3,1-4,1h-2c-2,0-3,1-4,1h-2c-2,1-4,1-5,1h-1c-2,1-3,1-5,1c0,1-1,1-2,1
		s-2,0-3,1h-2c-1,0-2,1-3,1h-2c-1,1-2,1-3,1s-1,1-2,1s-3,1-4,1h-1c-1,1-3,1-4,2h-1c-1,0-2,1-3,1s-1,1-2,1s-2,0-2,1h-2c-1,1-2,1-3,1
		l-1,1c-1,0-3,1-4,1c0,0,0,1-1,1s-2,1-3,1c0,0-1,0-1,1c-1,0-1,0-2,1h-2c0,1-1,1-2,1c0,1-1,1-1,1c-1,0-1,1-2,1s-1,1-1,1c-1,0-2,1-3,1
		l-1,1c-1,0-2,1-2,1c-1,0-1,1-1,1c-1,0-2,0-2,1c-1,0-1,0-1,1c-1,0-1,0-2,1h-1c-1,1-1,1-2,1c0,1,0,1-1,1l-2,2c-1,0-2,1-2,1
		c-1,0-1,1-1,1c-1,0-1,1-2,1V259C322,255,331,244,350,234L350,234L350,234z M137,205c38,2,86,8,124,29c19,10,28,21,32,25v278
		c-1,0-1-1-2-1c0,0,0-1-1-1l-1-1h-1c-1-1-1-2-2-2s-1,0-1-1c-1,0-1,0-2-1h-1c0-1-1-1-1-1c-1-1-1-1-2-1c0-1-1-1-1-1c-1,0-1-1-2-1
		c0,0-1-1-2-1c0,0,0-1-1-1s-2-1-3-1c0,0,0-1-1-1c0,0-1-1-2-1c0,0-1,0-1-1c-1,0-2,0-2-1h-2c0-1-1-1-2-1c0-1-1-1-1-1c-1,0-2-1-3-1
		l-1-1c-1,0-2-1-4-1l-1-1c-1,0-2,0-3-1h-1c-1-1-2-1-3-1c0,0-1-1-2-1s-1-1-2-1h-2c-1-1-3-1-4-2c-2,0-3-1-5-1c-1,0-1-1-2-1s-2,0-3-1
		h-2c-1,0-2-1-3-1h-2c-1-1-2-1-3-1s-1,0-2-1c-2,0-3,0-5-1c-2,0-4,0-6-1h-2c-1,0-2-1-4-1h-2c-1,0-2-1-3-1h-3c-1,0-2,0-4-1h-2
		c-2,0-4,0-6-1h-6c-1,0-2,0-3-1h-4h-3h-4c-1,0-2,0-3-1h-4h-3h-7V255V205L137,205z M89,268h23v237c0,6,4,11,10,12c1,1,2,1,3,1h5h2h4
		h3h2c17,1,36,2,55,6c1,0,2,0,4,1h1h2c1,1,2,1,3,1h1c18,4,33,10,44,15h1c1,1,1,1,2,1c1,1,2,1,3,2h1c1,1,2,2,3,2c1,1,2,1,2,1
		c1,0,1,1,1,1c1,0,1,0,1,1h1c1,0,1,1,1,1h1c1,0,1,1,1,1h1c0,1,1,1,1,1s1,0,1,1h1c0,0,0,1,1,1l1,1H89V268L89,268z M522,555H336
		c1,0,1-1,2-2h1c1,0,1-1,2-1v-1c1,0,2-1,3-1c0-1,1-1,1-1c1-1,2-1,3-2h1l1-1c1-1,2-1,3-2h2c0-1,1-1,2-1c1-1,2-1,3-2c11-5,23-10,39-13
		v-1h4c0-1,1-1,2-1h2c1-1,2-1,3-1h1c20-4,41-6,60-7h1h3h4h2h6c0,0,1,0,2-1c6-1,10-6,10-12V268h23V555L522,555z M333,587h-55
		c-7,0-12,5-12,12s5,13,12,13h55c7,0,12-6,12-13S340,587,333,587L333,587z"/>
</g>
</svg>
