<?xml version="1.0" encoding="iso-8859-1"?>
<!-- Generator: Adobe Illustrator 16.0.0, SVG Export Plug-In . SVG Version: 6.00 Build 0)  -->
<!DOCTYPE svg PUBLIC "-//W3C//DTD SVG 1.1//EN" "http://www.w3.org/Graphics/SVG/1.1/DTD/svg11.dtd">
<svg version="1.1" id="Layer_1" xmlns="http://www.w3.org/2000/svg" xmlns:xlink="http://www.w3.org/1999/xlink" x="0px" y="0px"
	 width="612px" height="792px" viewBox="0 0 612 792" style="enable-background:new 0 0 612 792;" xml:space="preserve">
<g>
	<path d="M41,661c35,35,75,62,119,80c47,20,96,30,146,30c12,0,22-10,22-22c0-11-10-21-22-21c-88,0-172-35-234-97
		C9,568-26,485-26,396c0-12-9-22-21-22s-22,10-22,22c0,51,10,100,30,146C-20,587,7,627,41,661L41,661L41,661z M660,417
		c12,0,21-9,21-21c0-51-9-100-29-146c-19-45-46-85-80-119c-35-35-75-62-120-81c-46-19-95-29-146-29c-11,0-21,10-21,21
		c0,12,10,22,21,22c89,0,172,34,235,97s97,146,97,235C638,408,648,417,660,417L660,417L660,417z M306,616c-58,0-114-23-155-64
		c-42-42-65-97-65-156c0-12-10-22-21-22c-12,0-22,10-22,22c0,70,27,136,77,186s116,77,186,77c12,0,22-9,22-21S318,616,306,616
		L306,616L306,616z M527,396c0,12,9,21,21,21s22-9,22-21c0-70-28-137-77-186c-50-50-116-77-187-77c-11,0-21,9-21,21s10,22,21,22
		c59,0,115,22,156,64C504,282,527,337,527,396L527,396L527,396z M306,505c-60,0-109-49-109-109c0-12-9-22-21-22s-22,10-22,22
		c0,84,69,152,152,152c12,0,22-10,22-22C328,515,318,505,306,505L306,505L306,505z M415,396c0,12,10,21,22,21s21-9,21-21
		c0-84-68-152-152-152c-11,0-21,10-21,21c0,12,10,22,21,22C367,287,415,336,415,396L415,396L415,396z M306,366c-16,0-29,14-29,30
		s13,29,29,29c17,0,30-13,30-29S323,366,306,366L306,366z"/>
</g>
</svg>
