<?xml version="1.0" encoding="iso-8859-1"?>
<!-- Generator: Adobe Illustrator 16.0.0, SVG Export Plug-In . SVG Version: 6.00 Build 0)  -->
<!DOCTYPE svg PUBLIC "-//W3C//DTD SVG 1.1//EN" "http://www.w3.org/Graphics/SVG/1.1/DTD/svg11.dtd">
<svg version="1.1" id="Layer_1" xmlns="http://www.w3.org/2000/svg" xmlns:xlink="http://www.w3.org/1999/xlink" x="0px" y="0px"
	 width="612px" height="792px" viewBox="0 0 612 792" style="enable-background:new 0 0 612 792;" xml:space="preserve">
<g>
	<path d="M43,146.25c52-3,112-17,178-42c39-15,70-30,85-37c15,7,46,22,85,37c66,25,126,39,178,42v289c0,50-13,97-40,139
		c-22,34-53,65-92,91c-56,39-113,59-131,64c-18-5-74-24-130-63c-39-27-70-58-92-92c-28-41-41-88-41-139V146.25L43,146.25z
		 M151,701.25c74,51,146,71,149,71c2,1,4,1,6,1s4,0,6-1c3,0,75-20,149-71c43-30,78-64,103-103c32-49,48-104,48-163v-310
		c0-12-9-22-21-22c-126,0-273-79-275-80c-6-3-14-3-20,0c-2,1-149,80-275,80c-12,0-21,10-21,22v310c0,59,16,114,48,163
		C73,637.25,108,671.25,151,701.25L151,701.25L151,701.25z M199,398.25h112c9,0,17-8,17-18s-8-18-17-18H199c-10,0-18,8-18,18
		S189,398.25,199,398.25L199,398.25L199,398.25z M199,459.25h214c10,0,18-8,18-18c0-9-8-17-18-17H199c-10,0-18,8-18,17
		C181,451.25,189,459.25,199,459.25L199,459.25L199,459.25z M409,291.25c-2,0-4,1-7,1c-15,0-31-8-42-21c-10-12-14-27-12-41
		c1-1,2-5,4-9l67,67C415,289.25,411,291.25,409,291.25L409,291.25L409,291.25z M209,198.25h109c-2,9-4,25-5,31c-2,24,7,49,24,67
		c17,20,42,31,67,31c2,0,4,0,6-1c7,0,23-3,31-4v238c0,20-17,38-38,38H209c-21,0-38-18-38-38v-323C171,216.25,188,198.25,209,198.25
		L209,198.25L209,198.25z M209,633.25h194c41,0,74-33,74-73v-257v-2v-1h-1v-2v-1l-1-1v-1c0-1-1-1-1-1v-1c0,0-1,0-1-1c-1,0-1-1-1-1
		l-123-123c-3-3-7-5-12-5H209c-41,0-74,33-74,74v323C135,600.25,168,633.25,209,633.25L209,633.25z"/>
</g>
</svg>
