<?xml version="1.0" encoding="iso-8859-1"?>
<!-- Generator: Adobe Illustrator 16.0.0, SVG Export Plug-In . SVG Version: 6.00 Build 0)  -->
<!DOCTYPE svg PUBLIC "-//W3C//DTD SVG 1.1//EN" "http://www.w3.org/Graphics/SVG/1.1/DTD/svg11.dtd">
<svg version="1.1" id="Layer_1" xmlns="http://www.w3.org/2000/svg" xmlns:xlink="http://www.w3.org/1999/xlink" x="0px" y="0px"
	 width="612px" height="792px" viewBox="0 0 612 792" style="enable-background:new 0 0 612 792;" xml:space="preserve">
<g>
	<path d="M179,506h11l46,7c1,1,1,1,2,1s3-1,4-2c2-1,3-3,3-5v-14c0-2-2-4-4-6l-33-17l1-56l117,15h1c4,0,7-3,7-7c0-1,0-2-1-3l-9-27
		c0-2-2-4-5-5l-109-29v-51c0-31-18-42-22-44c-1-1-1-1-2-1h-2c-1,0-2,0-3,1c-5,2-22,13-22,44v51L50,387c-3,1-5,3-5,5l-10,28
		c0,3,0,5,2,7c1,1,3,2,5,2h1l117-15l1,56l-33,17c-2,2-3,4-3,6l-1,14c0,2,1,4,3,5c1,1,3,2,4,2s2,0,2-1L179,506L179,506z M99,198h57
		c7,0,13-6,13-13s-6-13-13-13H99c-8,0-13,6-13,13S91,198,99,198L99,198L99,198z M213,198h58c7,0,13-6,13-13s-6-13-13-13h-58
		c-7,0-13,6-13,13S206,198,213,198L213,198L213,198z M603,171l-88-20l1-18c2-30-21-55-51-57l-62-4c-2-28-26-51-54-51H21
		c-30,0-55,25-55,54v82c0,5,2,9,4,12l10,16l-10,15c-2,4-4,8-4,12v369c0,30,25,54,55,54h34c7,20,25,34,47,35l9,1c8,13,20,22,35,25
		l320,74c4,1,8,1,12,1c25,0,47-17,52-41c1,0,1-1,1-1l82-360c1-4,1-8-1-12l-6-17l13-13c3-3,6-7,7-11l18-80c3-14,0-29-7-41
		C629,183,617,175,603,171L603,171L603,171z M473,131l-2,36l-2,39l-16,21c-5,7-6,16-2,24l14,23l-21,362c-1,6-5,10-11,10h-1l-187-11
		h104c29,0,53-24,54-53v-1V212c0-4-1-8-4-12l-10-15l10-16c3-3,4-7,4-12v-15v-27l59,4C469,119,473,125,473,131L473,131L473,131z
		 M73,592H21c-6,0-12-5-12-11V219l14-21h18c7,0,13-6,13-13s-6-13-13-13H23L9,151V75c0-6,6-11,12-11h328c6,0,11,5,11,11v1v17v49v9
		l-14,21h-18c-7,0-13,6-13,13s6,13,13,13h18l14,21v361v1c0,6-5,11-11,11H132H73L73,592z M602,227l-17,73l-19,18c-6,6-9,15-5,23l9,25
		l-81,353c-1,6-6,9-11,9h-3l-210-48l164,9h4c28,0,52-22,54-51l21-368c0-5-1-9-3-13l-9-15l11-15c2-4,4-8,4-12l1-20l81,18c3,1,6,3,7,5
		C602,221,603,224,602,227L602,227z"/>
</g>
</svg>
