<?xml version="1.0" encoding="iso-8859-1"?>
<!-- Generator: Adobe Illustrator 16.0.0, SVG Export Plug-In . SVG Version: 6.00 Build 0)  -->
<!DOCTYPE svg PUBLIC "-//W3C//DTD SVG 1.1//EN" "http://www.w3.org/Graphics/SVG/1.1/DTD/svg11.dtd">
<svg version="1.1" id="Layer_1" xmlns="http://www.w3.org/2000/svg" xmlns:xlink="http://www.w3.org/1999/xlink" x="0px" y="0px"
	 width="612px" height="792px" viewBox="0 0 612 792" style="enable-background:new 0 0 612 792;" xml:space="preserve">
<g>
	<path d="M984.243,139l-156-157c-8-8-22-8-30,0c-9,9-9,22,0,31l142,142h-349c-11,0-21,10-21,22s10,21,21,21h349l-142,143
		c-9,8-9,22,0,30c4,4,9,6,15,6c5,0,11-2,15-6l156-156c11-11,16-24,16-38C1000.243,162,995.243,149,984.243,139L984.243,139
		L984.243,139z M-92.757,111c149,0,253,54,253,102s-104,102-253,102c-148,0-252-54-252-102S-240.757,111-92.757,111L-92.757,111
		L-92.757,111z M-294.757,320c54,25,126,38,202,38c77,0,149-13,203-38c60-27,93-65,93-107s-33-80-93-107c-54-25-126-38-203-38
		c-76,0-148,13-202,38c-60,27-93,65-93,107S-354.757,293-294.757,320L-294.757,320L-294.757,320z M-280.757,473c53,20,120,31,188,31
		c69,0,136-11,189-31c56-21,93-51,107-85c4-12-2-24-13-28s-23,1-27,12c-9,22-39,45-82,61c-48,18-110,28-174,28c-138,0-238-45-255-89
		c-4-11-16-16-27-12s-17,16-13,28C-373.757,422-337.757,452-280.757,473L-280.757,473L-280.757,473z M458.243,423
		c149,0,252,54,252,103c0,48-103,102-252,102s-253-54-253-102C205.243,477,309.243,423,458.243,423L458.243,423L458.243,423z
		 M255.243,633c55,25,127,38,203,38s148-13,202-38c60-27,93-65,93-107s-33-80-93-107c-54-25-126-39-202-39s-148,14-203,39
		c-56,25-89,60-93,99c-8,23-38,45-81,61c-48,18-110,28-174,28c-138,0-238-45-255-89c-4-11-16-17-27-12c-11,4-17,16-13,27
		c14,35,50,65,107,86c53,20,120,31,188,31c69,0,136-11,189-31c34-13,61-29,80-47C191.243,595,218.243,616,255.243,633L255.243,633
		L255.243,633z M741.243,673c-11-5-24,1-28,12c-9,22-39,45-82,61c-48,18-109,28-173,28c-139,0-239-45-255-89c-5-11-17-17-28-12
		c-11,4-17,16-12,27c13,35,50,65,106,86c53,20,120,31,189,31s136-11,188-31c57-21,94-51,107-86C757.243,689,752.243,677,741.243,673
		L741.243,673z"/>
</g>
</svg>
