<?xml version="1.0" encoding="iso-8859-1"?>
<!-- Generator: Adobe Illustrator 16.0.0, SVG Export Plug-In . SVG Version: 6.00 Build 0)  -->
<!DOCTYPE svg PUBLIC "-//W3C//DTD SVG 1.1//EN" "http://www.w3.org/Graphics/SVG/1.1/DTD/svg11.dtd">
<svg version="1.1" id="Layer_1" xmlns="http://www.w3.org/2000/svg" xmlns:xlink="http://www.w3.org/1999/xlink" x="0px" y="0px"
	 width="612px" height="792px" viewBox="0 0 612 792" style="enable-background:new 0 0 612 792;" xml:space="preserve">
<g>
	<path d="M651,334c-88,0-160,72-160,160c0,89,72,161,160,161c89,0,160-72,160-161C811,406,740,334,651,334L651,334L651,334z
		 M651,612c-65,0-117-53-117-118c0-64,52-117,117-117s117,53,117,117C768,559,716,612,651,612L651,612L651,612z M978,385l-68-119
		c-5-8-14-12-23-10l-97,20c-7-4-13-8-19-11l-31-94c-3-9-11-15-20-15H604V44c0-29-15-56-39-71h-1c-13-9-29-13-44-13h-806
		c-15,0-31,4-44,13c-25,15-40,42-40,71v583c0,46,38,84,84,84h672l7,12c4,8,14,12,23,10l97-21c6,4,12,8,19,11l30,94c3,9,11,15,21,15
		h137c9,0,17-6,20-15l31-94c6-3,13-7,19-11l97,21c9,2,18-2,23-10l68-119c5-8,4-18-3-25l-66-74c0-4,1-7,1-11c0-3-1-7-1-11l66-73
		C982,403,983,393,978,385L978,385L978,385z M510,3L117,389L-276,3H510L510,3z M-286,668c-22,0-41-19-41-41V44c0-8,3-17,8-23
		l421,414c8,8,22,8,30,0L554,21c4,6,7,15,7,23v130l-29,91c-7,3-13,7-19,11l-97-20c-9-2-19,2-23,10l-69,119c-5,8-3,18,3,25l66,73v11
		v11l-66,74c-6,7-8,17-3,25l37,64H-286L-286,668z M871,461c-4,5-6,10-5,16c0,7,1,12,1,17s-1,11-1,17c-1,6,1,12,5,16l62,69l-53,92
		l-90-20c-6-1-12,0-17,4c-9,6-19,12-29,17c-6,2-10,7-11,13l-29,87H598l-28-87c-2-6-6-11-11-13c-11-5-21-11-30-17c-5-4-11-5-17-4
		l-90,20l-53-92l62-69c4-4,6-10,5-16v-17v-17c1-6-1-11-5-16l-62-68l53-92l90,19c6,1,12,0,17-3c10-7,20-13,29-17c6-3,10-7,12-13
		l28-88h106l29,88c1,6,5,10,11,13c10,4,20,10,29,17c5,3,11,4,17,3l90-19l53,92L871,461L871,461z"/>
</g>
</svg>
