<?xml version="1.0" encoding="iso-8859-1"?>
<!-- Generator: Adobe Illustrator 16.0.0, SVG Export Plug-In . SVG Version: 6.00 Build 0)  -->
<!DOCTYPE svg PUBLIC "-//W3C//DTD SVG 1.1//EN" "http://www.w3.org/Graphics/SVG/1.1/DTD/svg11.dtd">
<svg version="1.1" id="Layer_1" xmlns="http://www.w3.org/2000/svg" xmlns:xlink="http://www.w3.org/1999/xlink" x="0px" y="0px"
	 width="612px" height="792px" viewBox="0 0 612 792" style="enable-background:new 0 0 612 792;" xml:space="preserve">
<g>
	<path d="M603,175H306c-69,0-130,41-156,103H8c-94,0-170,76-170,170S-86,618,8,618h298c68,0,129-40,156-102h141c94,0,171-77,171-171
		C774,252,697,175,603,175L603,175L603,175z M603,473H474v-1l1-1v-2v-2v-1v-2v-2c1,0,1-1,1-1v-2v-1v-2v-2v-2v-1v-3
		c0-94-76-170-170-170h-60c-11,0-21,9-21,21s10,22,21,22h60c70,0,127,57,127,127c0,13-2,27-6,40c-17,52-66,87-121,87H8
		c-70,0-127-57-127-127S-62,321,8,321h129v2v2v1c0,1,0,1-1,2v1v2v2v1v2v2v1v2v1v3c0,94,76,171,170,171h59c12,0,22-10,22-22
		s-10-21-22-21h-59c-70,0-127-57-127-128c0-13,2-26,6-39c17-53,66-88,121-88h297c71,0,128,57,128,127C731,416,674,473,603,473
		L603,473z"/>
</g>
</svg>
