<?xml version="1.0" encoding="iso-8859-1"?>
<!-- Generator: Adobe Illustrator 16.0.0, SVG Export Plug-In . SVG Version: 6.00 Build 0)  -->
<!DOCTYPE svg PUBLIC "-//W3C//DTD SVG 1.1//EN" "http://www.w3.org/Graphics/SVG/1.1/DTD/svg11.dtd">
<svg version="1.1" id="Layer_1" xmlns="http://www.w3.org/2000/svg" xmlns:xlink="http://www.w3.org/1999/xlink" x="0px" y="0px"
	 width="612px" height="792px" viewBox="0 0 612 792" style="enable-background:new 0 0 612 792;" xml:space="preserve">
<g>
	<path d="M306,21C99,21-69,188-69,396c0,207,168,375,375,375s375-168,375-375C681,188,513,21,306,21L306,21L306,21z M656,396
		c0,47-9,93-28,136c-17,41-42,79-75,111c-32,32-69,57-111,75c-43,18-89,28-136,28s-93-10-136-28c-42-18-79-43-112-75
		c-32-32-57-70-75-111c-18-43-27-89-27-136c0-48,9-94,27-137c18-41,43-79,75-111c33-32,70-57,112-75c43-18,89-27,136-27s93,9,136,27
		c42,18,79,43,111,75c33,32,58,70,75,111C647,302,656,348,656,396L656,396L656,396z M481,210H312c-2-1-4-1-6-1s-4,0-6,1H131
		c-48,0-88,40-88,88v195c0,49,40,88,95,88h350c41,0,81-39,81-88V298C569,250,529,210,481,210L481,210L481,210z M293,448
		c-23-6-41-27-41-52c0-26,18-47,41-53V448L293,448z M318,343c24,6,42,27,42,53c0,25-18,46-42,52V343L318,343z M68,325h38v141H68V325
		L68,325z M87,537c-12-11-19-27-19-44v-2h51c7,0,12-6,12-13V313c0-7-5-13-12-13H68v-2c0-35,28-63,63-63h162v83c-37,6-66,38-66,78
		c0,39,29,71,66,77v83H138C118,556,100,549,87,537L87,537L87,537z M544,466h-38V325h38V466L544,466z M544,300h-51c-7,0-12,6-12,13
		v165c0,7,5,13,12,13h51v2c0,17-7,33-18,45c-11,11-25,18-38,18H318v-83c38-6,67-38,67-77c0-40-29-72-67-78v-83h163c34,0,63,28,63,63
		V300L544,300z"/>
</g>
</svg>
