<?xml version="1.0" encoding="iso-8859-1"?>
<!-- Generator: Adobe Illustrator 16.0.0, SVG Export Plug-In . SVG Version: 6.00 Build 0)  -->
<!DOCTYPE svg PUBLIC "-//W3C//DTD SVG 1.1//EN" "http://www.w3.org/Graphics/SVG/1.1/DTD/svg11.dtd">
<svg version="1.1" id="Layer_1" xmlns="http://www.w3.org/2000/svg" xmlns:xlink="http://www.w3.org/1999/xlink" x="0px" y="0px"
	 width="612px" height="792px" viewBox="0 0 612 792" style="enable-background:new 0 0 612 792;" xml:space="preserve">
<g>
	<path d="M306,232c-49,0-90,40-90,89c0,12,10,22,22,22s21-10,21-22c0-25,21-46,47-46c25,0,46,21,46,46c0,26-21,47-46,47
		c-12,0-22,10-22,21v36c0,11,10,21,22,21s21-10,21-21v-17c39-9,68-45,68-87C395,272,355,232,306,232L306,232L306,232z M371,492
		c-9-6-18-12-27-17l-27-17c-7-4-16-4-23,0c-7,5-15,10-23,15c-10,6-20,13-30,19s-13,19-7,30c6,10,20,13,30,6c10-6,20-12,29-18
		c5-3,9-6,13-8l15,9c9,6,18,12,27,17c3,2,7,4,11,4c7,0,14-4,18-10C384,511,381,498,371,492L371,492L371,492z M588,459
		c-16,31-52,83-105,83c-7,0-13,3-17,9c-4,5-5,13-3,19c3,8,3,18,1,21c-1,0-7,2-27-4c-7-3-14-2-20,3c-18,13-9,40-4,52
		c5,14,13,31,24,53c3,6,7,13,10,19c-40-15-94-36-133-51c-5-2-11-2-16,0c-39,15-94,36-133,51c3-6,6-13,10-19c10-22,18-39,23-53
		c5-12,15-39-3-52c-4-3-9-5-13-5c-3,0-5,1-7,2c-20,6-27,4-28,4c-1-3-1-13,1-21c3-6,2-14-2-19c-4-6-11-9-18-9c-20,0-40-7-58-21
		c-18-15-35-35-49-62c-23-45-39-105-43-169l96,58c8,5,19,4,26-2s9-16,5-25c-19-43-29-91-30-141L306,62l231,118c-2,50-12,98-31,141
		c-3,9-1,19,6,25s17,7,25,2l97-58C629,353,613,413,588,459L588,459L588,459z M667,233c-6-4-15-4-21,0l-80,48c9-36,14-74,14-114
		c0-8-4-16-12-19L316,19c-7-4-14-4-20,0L43,148c-7,3-12,11-12,19c0,40,5,78,15,114l-80-48c-7-4-15-4-22,0c-6,4-11,11-11,19
		c0,85,18,166,50,227c31,58,73,94,120,103c0,13,3,28,14,39c9,10,22,14,38,13c-4,11-11,27-24,51c-16,31-32,58-32,58c-4,7-4,15,0,21
		c3,7,10,11,17,12c6,0,6,0,40-13c15-6,37-14,64-24c35-14,71-27,86-33c15,6,50,19,85,33c27,10,49,18,65,24c29,11,33,13,37,13h3
		c7-1,14-5,17-12c3-6,3-14-1-21c0,0-16-27-32-58c-12-24-19-40-24-51c16,1,29-3,39-13c11-11,14-26,13-39c46-9,87-45,118-103
		c33-62,52-144,52-227C678,244,674,237,667,233L667,233z"/>
</g>
</svg>
