<?xml version="1.0" encoding="iso-8859-1"?>
<!-- Generator: Adobe Illustrator 16.0.0, SVG Export Plug-In . SVG Version: 6.00 Build 0)  -->
<!DOCTYPE svg PUBLIC "-//W3C//DTD SVG 1.1//EN" "http://www.w3.org/Graphics/SVG/1.1/DTD/svg11.dtd">
<svg version="1.1" id="Layer_1" xmlns="http://www.w3.org/2000/svg" xmlns:xlink="http://www.w3.org/1999/xlink" x="0px" y="0px"
	 width="612px" height="792px" viewBox="0 0 612 792" style="enable-background:new 0 0 612 792;" xml:space="preserve">
<g>
	<path d="M587,474H25V169h562V474L587,474z M608,126H3c-12,0-21,10-21,22v347c0,12,9,22,21,22h605c12,0,22-10,22-22V148
		C630,136,620,126,608,126L608,126L608,126z M684,587c0,9-6,15-15,15H404H207H-58c-8,0-15-6-15-15V76c0-8,7-14,15-14h727
		c9,0,15,6,15,14V587L684,587z M444,730H167l52-85h173L444,730L444,730z M669,19H-58c-32,0-58,26-58,57v511c0,32,26,58,58,58h227
		l-58,96c-4,6-5,15-1,21c4,7,11,11,19,11h354c7,0,15-4,18-11c4-6,4-15,0-21l-58-96h226c32,0,58-26,58-58V76C727,45,701,19,669,19
		L669,19z"/>
</g>
</svg>
