<?xml version="1.0" encoding="iso-8859-1"?>
<!-- Generator: Adobe Illustrator 16.0.0, SVG Export Plug-In . SVG Version: 6.00 Build 0)  -->
<!DOCTYPE svg PUBLIC "-//W3C//DTD SVG 1.1//EN" "http://www.w3.org/Graphics/SVG/1.1/DTD/svg11.dtd">
<svg version="1.1" id="Layer_1" xmlns="http://www.w3.org/2000/svg" xmlns:xlink="http://www.w3.org/1999/xlink" x="0px" y="0px"
	 width="612px" height="792px" viewBox="0 0 612 792" style="enable-background:new 0 0 612 792;" xml:space="preserve">
<g>
	<path d="M534,751c-62,63-146,97-235,97c-88,0-172-34-235-97C2,688-33,605-33,516S2,344,64,281c63-63,147-97,235-97
		c89,0,173,34,235,97c63,63,98,146,98,235S597,688,534,751L534,751L534,751z M565,250c-35-34-75-61-119-80c-47-20-96-29-147-29
		c-50,0-99,9-146,29c-44,19-84,46-119,80c-34,35-61,75-80,120c-20,46-30,95-30,146c0,50,10,100,30,146c19,45,46,85,80,119
		c35,35,75,62,119,81c47,19,96,29,146,29c51,0,100-10,147-29c44-19,84-46,119-81c34-34,61-74,80-119c20-46,30-96,30-146
		c0-51-10-100-30-146C626,325,599,285,565,250L565,250L565,250z M338-56L320,44h-51L252-56H338L338-56z M230,69c2,11,11,18,21,18h87
		c11,0,20-7,22-18l25-143c1-6-1-12-5-17s-10-8-16-8H226c-6,0-12,3-16,8c-5,5-6,11-5,17L230,69L230,69z M680,128c-8-8-22-8-30,0
		l-51,51c-8,8-8,22,0,30c4,5,10,7,15,7c6,0,11-2,16-7l50-50C689,150,689,137,680,128L680,128L680,128z M321,483V254
		c0-12-10-22-22-22c-11,0-21,10-21,22v228c-11,8-18,20-18,34c0,22,18,39,39,39c22,0,40-17,40-39C339,502,332,490,321,483L321,483z"
		/>
</g>
</svg>
