<?xml version="1.0" encoding="iso-8859-1"?>
<!-- Generator: Adobe Illustrator 16.0.0, SVG Export Plug-In . SVG Version: 6.00 Build 0)  -->
<!DOCTYPE svg PUBLIC "-//W3C//DTD SVG 1.1//EN" "http://www.w3.org/Graphics/SVG/1.1/DTD/svg11.dtd">
<svg version="1.1" id="Layer_1" xmlns="http://www.w3.org/2000/svg" xmlns:xlink="http://www.w3.org/1999/xlink" x="0px" y="0px"
	 width="612px" height="792px" viewBox="0 0 612 792" style="enable-background:new 0 0 612 792;" xml:space="preserve">
<g>
	<path d="M-53,625h1c0,0,0,1,1,1h1v1h1l300,142h1h1v1h1h1h1c1,1,2,1,2,1h2h1h1h1v-1h1h1l391-95h2v-1h1h1l1-1h1v-1h1c0,0,1,0,1-1
		c1,0,1,0,1-1h1v-1h1c0-1,0-1,1-1v-1h1v-1c0,0,0-1,1-1v-1c0-1,1-1,1-1v-1v-1l1-1v-1v-1v-1v-1v-2V184v-1v-1v-1v-1v-1v-1v-1h-1v-2
		c-1-1-1-1-1-2l-2-2c0-1-1-1-1-2l-1-1h-1c0-1-1-1-1-2h-1l-1-1h-1c0-1-1-1-1-1L361,23h-1c0-1,0-1-1-1h-1h-1c0-1,0-1-1-1h-1h-1h-1h-1
		h-1h-2h-1h-1h-1l-391,95l-1,1h-1h-1c0,1-1,1-1,1h-1v1h-1c0,0-1,0-1,1c-1,0-1,0-1,1h-1l-1,1c0,0,0,1-1,1c0,1,0,1-1,1c0,1,0,1-1,2v1
		h-1v1v1c-1,0-1,0-1,1v1v1c-1,0-1,1-1,1v1v1v1v1v470v1v1v2v1v1h1v1v1c0,0,0,1,1,1v1v1c0,0,1,0,1,1s1,1,1,1v1h1v1h1v1h1v1
		C-54,624-53,624-53,625L-53,625L-53,625z M25,614l190-46c12-3,19-14,16-26c-3-11-14-19-26-16l-223,54V171l257,121v423l-129-60
		L25,614L25,614z M373,499V76l214,101l-191,46c-12,3-19,15-16,26c3,10,11,17,21,17c2,0,3,0,5-1l223-54v409L373,499L373,499z M330,70
		v426l-25,6c-12,3-19,15-16,26c2,10,11,16,21,16h5l34-8l238,112l-305,74V295l25-6c11-2,18-14,16-26c-3-11-15-18-26-15l-35,8L25,144
		L330,70L330,70z"/>
</g>
</svg>
