<?xml version="1.0" encoding="iso-8859-1"?>
<!-- Generator: Adobe Illustrator 16.0.0, SVG Export Plug-In . SVG Version: 6.00 Build 0)  -->
<!DOCTYPE svg PUBLIC "-//W3C//DTD SVG 1.1//EN" "http://www.w3.org/Graphics/SVG/1.1/DTD/svg11.dtd">
<svg version="1.1" id="Layer_1" xmlns="http://www.w3.org/2000/svg" xmlns:xlink="http://www.w3.org/1999/xlink" x="0px" y="0px"
	 width="612px" height="792px" viewBox="0 0 612 792" style="enable-background:new 0 0 612 792;" xml:space="preserve">
<g>
	<path d="M547,270c-11,0-21,10-21,22v90c0,59-23,114-65,156c-41,42-97,64-156,64c-121,0-220-98-220-220v-90c0-12-10-22-22-22
		c-11,0-21,10-21,22v90c0,70,27,137,77,186c45,45,103,72,165,77v83H153c-11,0-21,9-21,21s10,22,21,22h304c12,0,22-10,22-22
		s-10-21-22-21H327v-83c62-5,120-32,165-77c49-49,77-116,77-186v-90C569,280,559,270,547,270L547,270L547,270z M305,562
		c102,0,184-82,184-183V204c0-78-49-145-118-171h-1c-20-8-42-12-65-12c-22,0-44,4-64,12h-1c-69,26-118,93-118,171v175
		C122,480,204,562,305,562L305,562L305,562z M227,88v98c0,12,10,22,22,22s21-10,21-22V68c5-1,9-2,14-3v121c0,12,10,22,21,22
		c12,0,22-10,22-22V65c5,1,9,2,14,3v118c0,12,9,22,21,22s22-10,22-22V88c37,25,62,68,62,116v66h-79c-8-26-33-44-62-44
		c-28,0-53,18-61,44h-79v-66C165,156,190,113,227,88L227,88L227,88z M283,291v-1c0-12,10-21,22-21c13,0,22,9,23,22c0,13-10,22-23,22
		C293,313,283,304,283,291L283,291L283,291z M165,313h79c9,25,33,43,61,43c29,0,53-18,62-43h79v66c0,77-63,140-141,140
		c-77,0-140-63-140-140V313L165,313z"/>
</g>
</svg>
