<?xml version="1.0" encoding="iso-8859-1"?>
<!-- Generator: Adobe Illustrator 16.0.0, SVG Export Plug-In . SVG Version: 6.00 Build 0)  -->
<!DOCTYPE svg PUBLIC "-//W3C//DTD SVG 1.1//EN" "http://www.w3.org/Graphics/SVG/1.1/DTD/svg11.dtd">
<svg version="1.1" id="Layer_1" xmlns="http://www.w3.org/2000/svg" xmlns:xlink="http://www.w3.org/1999/xlink" x="0px" y="0px"
	 width="612px" height="792px" viewBox="0 0 612 792" style="enable-background:new 0 0 612 792;" xml:space="preserve">
<g>
	<path d="M592,116h-6c2-25-7-50-26-69c-16-17-38-26-62-26s-46,10-62,26c-17,17-26,39-26,62c0,17,4,32,12,46L64,513
		c-14-8-29-12-46-12c-23,0-45,9-62,26c-17,16-26,38-26,62s9,46,26,62c17,17,39,26,62,26h7c-2,25,6,50,25,69c17,16,39,25,63,25
		c23,0,45-9,62-25c29-30,33-74,13-108l359-359c13,8,29,13,45,13c24,0,46-9,62-26c35-34,35-90,0-125C638,125,616,116,592,116L592,116
		L592,116z M624,236c-8,8-20,13-32,13s-23-5-32-13c-8-9-22-9-30,0L144,621c-8,8-8,22,0,30c18,18,18,47,0,64c-8,9-19,13-31,13
		c-13,0-24-4-32-13c-18-17-18-46-1-63l1-1c4-4,6-9,6-15c0-9-5-16-13-20c-8-3-18-1-24,5c-9,9-20,13-32,13s-23-5-32-13
		c-8-9-13-20-13-32s5-23,13-32c9-8,20-13,32-13s24,5,32,13c4,4,10,6,15,6c6,0,12-2,16-6l385-385c4-4,6-10,6-15c0-6-2-12-6-16
		c-8-8-13-20-13-32s5-23,13-31c9-9,20-14,32-14s23,5,32,14c17,17,17,46,0,63c-9,9-9,22,0,31c8,8,22,8,30,0c9-9,20-13,32-13
		s24,4,32,13C642,189,642,218,624,236L624,236z"/>
</g>
</svg>
