<?xml version="1.0" encoding="iso-8859-1"?>
<!-- Generator: Adobe Illustrator 16.0.0, SVG Export Plug-In . SVG Version: 6.00 Build 0)  -->
<!DOCTYPE svg PUBLIC "-//W3C//DTD SVG 1.1//EN" "http://www.w3.org/Graphics/SVG/1.1/DTD/svg11.dtd">
<svg version="1.1" id="Layer_1" xmlns="http://www.w3.org/2000/svg" xmlns:xlink="http://www.w3.org/1999/xlink" x="0px" y="0px"
	 width="612px" height="792px" viewBox="0 0 612 792" style="enable-background:new 0 0 612 792;" xml:space="preserve">
<g>
	<path d="M820,234c-44,44-95,79-152,103c-56,24-116,36-177,37c-14-12-47-39-96-64c-37-20-76-35-116-44c-50-12-101-16-152-11
		c-6,1-12,4-16,10c-3,6-4,13-2,19l15,39l-79-64c-7-5-17-6-25-1s-11,14-9,23l9,45l-98-44c-5-3-11-3-17-1c-57,22-105,56-144,101h-1v1
		c-1,0-1,1-1,1l-1,1v1l-1,1v1v1c-1,0-1,0-1,1v1v1l-1,1v1v1v1v1v1v1l1,1v1v1v1c0,0,1,0,1,1v1v1c1,0,1,0,1,1l1,1c0,1,1,1,1,1v1
		c1,0,1,1,1,1c48,48,104,86,166,112c64,27,132,41,202,41c71,0,139-14,203-41c59-25,113-61,159-106c67-1,132-14,194-41
		c62-26,117-64,165-111c9-9,9-22,0-31C842,226,828,226,820,234L820,234L820,234z M315,484c-59,24-121,37-186,37c-64,0-127-13-185-37
		c-51-22-97-52-137-89c30-30,65-54,105-70l130,58c7,3,16,2,22-3s9-13,7-21l-6-28l94,75c1,0,1,1,2,1l1,1h1l1,1h1c0,0,1,0,1,1h1h2
		c3,1,6,0,10-1h1h1c0-1,1-1,1-1h1c0-1,1-1,1-1h1c0-1,1-1,1-2c1,0,1-1,2-1c0-1,1-1,1-2c1,0,1-1,1-1l1-1c0,0,0-1,1-1v-2l1-1v-1
		c0-1,0-2,1-2c0-4,0-7-1-10v-1v-1l-33-85c36-1,72,3,108,11c36,9,72,22,106,40s61,37,76,50C410,433,365,462,315,484L315,484z"/>
</g>
</svg>
