<?xml version="1.0" encoding="iso-8859-1"?>
<!-- Generator: Adobe Illustrator 16.0.0, SVG Export Plug-In . SVG Version: 6.00 Build 0)  -->
<!DOCTYPE svg PUBLIC "-//W3C//DTD SVG 1.1//EN" "http://www.w3.org/Graphics/SVG/1.1/DTD/svg11.dtd">
<svg version="1.1" id="Layer_1" xmlns="http://www.w3.org/2000/svg" xmlns:xlink="http://www.w3.org/1999/xlink" x="0px" y="0px"
	 width="612px" height="792px" viewBox="0 0 612 792" style="enable-background:new 0 0 612 792;" xml:space="preserve">
<g>
	<path d="M306,21C99,21-69,189-69,396S99,771,306,771s375-168,375-375S513,21,306,21L306,21L306,21z M656,396c0,47-9,93-27,136
		c-18,42-43,79-75,111c-33,33-70,58-112,75c-43,19-89,28-136,28s-93-9-136-28c-42-17-79-42-111-75c-33-32-58-69-75-111
		c-19-43-28-89-28-136s9-93,28-136c17-42,42-79,75-112c32-32,69-57,111-75c43-18,89-27,136-27s93,9,136,27c42,18,79,43,112,75
		c32,33,57,70,75,112C647,303,656,349,656,396L656,396L656,396z M496,231h23c6,0,11-5,11-11s-5-12-11-12h-83c-44,0-78,24-100,71
		c-10,23-15,45-17,57H127c-7,0-13,6-13,12c0,7,6,12,13,12h22l-33,154c-18-21-34-44-46-70c-3-6-10-9-15-6c-7,3-9,10-7,15
		c16,36,39,68,67,93h1c2,2,5,4,7,6h1l3,3h1c1,2,4,4,6,6c0,0,1,0,1,1c1,0,2,1,3,2c1,0,1,1,1,1c2,0,3,1,4,1v1c2,2,5,3,7,5h1l3,3
		c1,0,2,0,2,1c1,0,1,0,2,1l1,1c1,1,3,1,4,1l1,1c1,0,2,1,3,2c1,0,1,0,2,1c1,0,1,0,2,1c1,0,1,1,2,1l1,1c31,15,65,24,100,28h3h2h3h2h3
		c1,0,2,1,2,1h2h5h5h2c1,0,2-1,2-1h4h1h4h1h3h1c33-3,65-12,95-26c1,0,1-1,2-1c0,0,1,0,1-1c1,0,2-1,3-1v-1c5-2,11-5,15-7
		c15-10,29-20,43-32v-1c29-25,51-56,66-91c3-5,0-12-6-15c-5-3-13,0-16,6c-11,26-26,49-45,69c-7-27-15-66-23-103c-12-63-13-87-12-96
		c13,5,30,26,38,40c3,6,11,7,16,5l39-21c4-3,7-7,6-12c0-1-4-29-19-57C515,253,507,241,496,231L496,231L496,231z M175,558
		c0-1,1-2,1-2v-1v-2v-1c0-1,0-2,1-2v-3v-1c1-1,1-1,1-2v-1c0-1,0-1,1-2v-1v-2c1,0,1-1,1-1v-1c0,0,0-1,1-1v-2c0,0,0-1,1-1v-2l1-1v-1
		c0-1,0-1,1-2v-1c0-1,1-1,1-1v-2c1,0,1-1,1-1l1-1v-1v-1v-1c1-1,1-2,2-2v-1c0-1,1-2,1-3h1c0-1,0-2,1-2v-1c1-1,1-1,1-2h1l1-1
		c0-1,0-1,1-1c0-1,0-1,1-2v-1c1,0,1-1,1-1l1-1c1-1,1-1,1-2c0,0,1,0,1-1l1-1v-1c0-1,1-1,1-1c0-1,1-1,1-1s1,0,1-1c0,0,1,0,1-1l1-1l1-1
		l1-1l1-1c1-1,1-2,2-2c22-22,52-35,84-35s62,13,84,35c1,0,2,1,3,2v1c1,0,1,1,2,1c0,0,0,1,1,1c0,0,0,1,1,1c0,1,0,1,1,1c0,1,0,1,1,1
		l1,1v1c0,0,0,1,1,1c0,0,0,1,1,1v1c1,1,1,1,1,2c1,0,1,0,1,1c1,0,1,1,1,1l1,1c0,1,1,1,1,2l1,1c0,0,0,1,1,1c1,1,1,1,1,2c0,0,1,0,1,1
		c0,0,1,1,1,2c1,1,1,2,2,3c0,1,1,2,1,3v2l1,1c0,1,0,1,1,1v1c0,1,1,1,1,2v1c1,0,1,1,1,1v2c1,0,1,1,1,1c0,1,0,1,1,1v2c0,0,0,1,1,1v2v1
		c1,0,1,0,1,1v1c0,1,1,1,1,2v1c0,1,0,1,1,2v1v3c1,1,1,2,1,3v2c1,0,1,0,1,1v2v1v2v1c0,0,0,1,1,1c-4,2-8,4-13,5v1c-1,0-2,1-2,1
		c-1,1-2,1-3,1c0,0,0,1-1,1s-2,1-3,1c-25,11-52,18-79,21h-1h-3h-1h-3h-2h-3l-1,1h-2h-5h-4h-2c-1,0-1,0-2-1h-2h-2h-3h-1h-4
		c-30-3-60-11-87-24c-1-1-2-1-2-2h-2c-1,0-1,0-2-1c-3-1-5-3-8-4v-1V558L175,558z M494,333c-3-4-7-10-13-16c-16-18-31-28-45-28
		c-4,0-9,2-12,6c-5,8-11,23,7,115c8,45,19,94,26,122c-6,5-12,10-18,14c0-1-1-1-1-2v-2v-1c0-1-1-1-1-2v-1c0-1-1-2-1-3s0-2-1-3v-1
		c0-1,0-1-1-2v-1v-2v-2c0,0-1-1-1-2v-1c-1,0-1-1-1-2c-1,0-1-1-1-1c0-1,0-1-1-2v-1c0-1-1-2-1-2c0-1,0-1-1-1v-2c-1-1-1-1-1-2
		c0,0-1-1-1-2c-1-1-1-2-2-3l-1-1c0,0,0-1-1-2v-1c-1,0-1-1-1-2c-1,0-1,0-1-1v-2c0,0-1,0-1-1s-1-1-2-1v-1l-2-2v-1l-2-2v-1l-2-2v-1
		c-1,0-2-1-2-2h-1c0-1-1-2-2-3c-1,0-1-1-1-2c0,0-1,0-1-1l-1-1l-1-1l-2-2l-1-1c0-1-1-1-2-2c-27-26-63-41-101-41c-37,0-73,15-100,41
		c-1,1-2,1-3,2v1c-1,1-2,1-2,2c0,0-1,0-1,1c-1,0-1,1-2,1v1c-1,1-1,2-1,2h-1c0,1-1,2-2,3s-1,2-2,2c0,1,0,1-1,1c0,1-1,1-1,2l-1,1
		c0,1-1,1-1,2c0,0-1,0-1,1s-1,1-1,2c0,0-1,0-1,1c0,0-1,0-2,1v1c-1,1-1,2-1,2v1c0,1-1,2-1,2c0,1-1,1-1,1c0,1,0,2-1,2v1c-1,1-1,2-2,3
		s-1,2-1,2c-1,1-1,1-1,2c0,0-1,1-1,2v1c-1,0-1,1-1,2c0,0-1,0-1,1s0,1-1,2v1c0,1-1,2-1,2v1c-1,1-1,2-1,2c0,1-1,1-1,2v2v1v2l-1,1v3h-1
		v3l-1,1v2v1c0,1-1,2-1,3v1c-1,0-1,0-2-1l-15-12l35-173h158c6,0,11-5,12-11c0,0,3-31,16-61c18-37,44-57,78-57c28,0,50,16,66,47
		c8,17,12,34,15,43L494,333L494,333z"/>
</g>
</svg>
