<?xml version="1.0" encoding="utf-8"?>
<!-- Generator: Adobe Illustrator 18.1.1, SVG Export Plug-In . SVG Version: 6.00 Build 0)  -->
<svg version="1.1" id="Слой_1" xmlns="http://www.w3.org/2000/svg" xmlns:xlink="http://www.w3.org/1999/xlink" x="0px" y="0px"
	 viewBox="0 0 771.9 750" enable-background="new 0 0 771.9 750" xml:space="preserve">
<g>
	<path d="M451.3,494.4h-2.7c-21.4,58.2-60.1,87.3-116.2,87.3c-42,0-75.9-15.2-101.7-45.7c-25.8-30.5-38.6-72.7-38.6-126.7
		c0-69.8,17.8-126.6,53.5-170.3c35.7-43.8,78.7-65.6,129-65.6c45.4,0,73.9,17.8,85.5,53.5h1.8l4.6-45.3h102.8
		c-13.7,129.9-20.5,214.8-20.5,254.7c0,42.7,11.6,64,34.8,64c24.4,0,44.5-16.2,60.4-48.5c15.8-32.3,23.7-74.6,23.7-126.7
		c0-71.3-22.7-129.8-68.1-175.4c-45.5-45.6-108.9-68.4-190.3-68.4c-87.2,0-159.7,30.4-217.5,91.2c-57.8,60.8-86.6,135-86.6,222.5
		c0,84.8,25.5,151.5,76.6,200.3s121.6,73.1,211.5,73.1c68.6,0,131.5-13.1,188.4-39.3v87.4C529.5,738.9,462.5,750,380.5,750
		c-112.5,0-204-32.3-274.6-96.7C35.3,588.8,0,502.1,0,393.3c0-111,37.6-204.2,113-279.9C188.3,37.8,285.2,0,403.8,0
		c109.8,0,198.5,29.3,266.4,88c67.8,58.7,101.7,136,101.7,232.1c0,79-20.8,142.3-62.2,190c-41.5,47.7-92.8,71.6-154.2,71.6
		c-30.2,0-54.7-8-73.6-24.2C463.1,541.3,452.9,520.3,451.3,494.4z M390.6,252.9c-27.5,0-49.8,15.6-67.1,46.9
		c-17.2,31.3-25.8,67.4-25.8,108.6c0,29.3,5.9,52.1,17.6,68.4c11.7,16.4,26.9,24.5,45.5,24.5c28.6,0,51.2-15.4,67.7-46.2
		c16.5-30.8,24.6-71.9,24.6-123.4c0-24.4-5.7-43.6-17.1-57.6C424.6,259.9,409.4,252.9,390.6,252.9z"/>
</g>
</svg>
