<?xml version="1.0" encoding="utf-8"?>
<!-- Generator: Adobe Illustrator 16.0.0, SVG Export Plug-In . SVG Version: 6.00 Build 0)  -->
<!DOCTYPE svg PUBLIC "-//W3C//DTD SVG 1.1//EN" "http://www.w3.org/Graphics/SVG/1.1/DTD/svg11.dtd">
<svg version="1.1" id="Layer_1" xmlns="http://www.w3.org/2000/svg" xmlns:xlink="http://www.w3.org/1999/xlink" x="0px" y="0px"
	 width="780px" height="750px" viewBox="-84 21 780 750" enable-background="new -84 21 780 750" xml:space="preserve">
<g>
	<path d="M674,728H-62c-12,0-22,9-22,21s10,22,22,22h736c12,0,22-10,22-22S686,728,674,728L674,728L674,728z M306,21c-4,0-7,1-10,2
		L-71,195c-8,3-13,11-13,19v44c0,11,10,21,22,21h32v380h-32c-12,0-22,9-22,21s10,22,22,22h736c12,0,22-10,22-22s-10-21-22-21h-32
		V279h32c12,0,22-10,22-21v-44c0-8-5-16-13-19L316,23C313,22,309,21,306,21L306,21L306,21z M63,659H13V279h50V659L63,659z M506,659
		H106V279h87c1,0,3,1,5,1c1,0,3-1,5-1h206c2,0,3,1,5,1s3-1,5-1h87V659L506,659z M222,236c10-37,44-65,84-65s74,28,84,65H222L222,236
		z M599,659h-50V279h50V659L599,659z M653,236H434c-11-61-64-108-128-108s-117,47-128,108H-41v-8L306,66l347,162V236L653,236z
		 M306,415c-30,0-54,24-54,54c0,29,24,54,54,54c29,0,54-25,54-54C360,439,335,415,306,415L306,415L306,415z M306,480
		c-6,0-11-5-11-11s5-11,11-11s11,5,11,11S312,480,306,480L306,480L306,480z M397,361l-33,7l-10-32c-3-9-12-15-21-15h-54
		c-10,0-18,6-21,15l-10,32l-33-7c-9-2-19,2-23,10l-27,48c-5,8-4,18,2,25l23,25l-23,25c-6,7-7,17-2,25l27,47c4,8,14,12,23,10l33-7
		l10,32c3,9,11,15,21,15h54c9,0,18-6,21-15l10-32l33,7c9,2,18-2,23-10l27-47c5-8,4-18-2-25l-23-25l23-25c6-7,7-17,2-25l-27-47
		C415,363,406,359,397,361L397,361L397,361z M378,463c1,2,1,4,1,6s0,3-1,5c0,6,2,12,6,17l18,20l-11,20l-27-6c-6-1-12,0-17,4
		c-3,2-6,4-10,6c-5,2-9,7-11,12l-8,26h-24l-8-26c-2-5-6-10-11-12c-4-2-7-4-10-6c-5-4-11-5-17-4l-27,6l-11-20l18-20c4-5,6-11,5-16v-6
		v-6c1-6-1-12-5-16l-18-20l11-20l27,5c6,1,12,0,17-3c3-2,6-4,10-6c5-2,9-7,11-13l8-26h24l8,26c2,6,6,11,11,13c4,2,7,4,10,6
		c5,3,11,4,17,3l27-5l11,20l-18,20C380,451,378,457,378,463L378,463z"/>
</g>
</svg>
