<?xml version="1.0" encoding="utf-8"?>
<!-- Generator: Adobe Illustrator 16.0.0, SVG Export Plug-In . SVG Version: 6.00 Build 0)  -->
<!DOCTYPE svg PUBLIC "-//W3C//DTD SVG 1.1//EN" "http://www.w3.org/Graphics/SVG/1.1/DTD/svg11.dtd">
<svg version="1.1" id="Layer_1" xmlns="http://www.w3.org/2000/svg" xmlns:xlink="http://www.w3.org/1999/xlink" x="0px" y="0px"
	 width="750px" height="750px" viewBox="-69 21 750 750" enable-background="new -69 21 750 750" xml:space="preserve">
<g>
	<path d="M306,21C99,21-69,188-69,396c0,207,168,375,375,375s375-168,375-375C681,188,513,21,306,21L306,21L306,21z M656,396
		c0,47-9,93-27,136c-18,41-43,79-75,111s-70,57-112,75c-43,18-89,28-136,28s-93-10-136-28c-42-18-79-43-111-75S1,573-16,532
		c-19-43-28-89-28-136c0-48,9-94,28-137c17-41,43-79,75-111s69-57,111-75c43-18,89-27,136-27s93,9,136,27c42,18,80,43,112,75
		s57,70,75,111C647,302,656,348,656,396L656,396L656,396z M533,580H80c-7,0-13,6-13,13s6,12,13,12h453c6,0,12-5,12-12
		S539,580,533,580L533,580L533,580z M538,253L312,147c-2-1-4-1-6-1s-4,0-6,1L75,253c-5,2-8,6-8,11v27c0,7,6,12,13,12h21v235H80
		c-7,0-13,5-13,12s6,13,13,13h453c6,0,12-6,12-13s-6-12-12-12h-21V303h21c6,0,12-5,12-12v-27C545,259,542,255,538,253L538,253
		L538,253z M126,303h32v235h-32V303L126,303z M237,303c1,0,2,1,3,1s2-1,3-1h127c1,0,2,1,3,1s2-1,3-1h54v235H183V303H237L237,303z
		 M254,278c6-23,27-41,52-41c26,0,47,18,53,41H254L254,278z M487,538h-32V303h32V538L487,538z M520,278H384c-6-37-39-66-78-66
		s-72,29-78,66H92v-6l214-100l214,100V278L520,278z M306,453c18,0,33-15,33-33c0-17-15-32-33-32s-32,15-32,32
		C274,438,288,453,306,453L306,453L306,453z M306,413c4,0,8,3,8,7s-4,8-8,8s-7-4-7-8S302,413,306,413L306,413L306,413z M236,420
		l-14,16c-4,4-5,10-2,15l17,29c2,5,8,7,13,6l21-5l7,21c1,5,6,8,11,8h34c5,0,10-3,12-8l6-21l21,5c6,1,11-1,14-6l16-29c3-5,3-11-1-15
		l-14-16l14-15c4-4,4-10,1-15l-16-29c-3-5-8-7-14-6l-21,4l-6-20c-2-5-7-8-12-8h-34c-5,0-10,3-11,8l-7,20l-21-4c-5-1-11,1-13,6
		l-17,29c-3,5-2,11,2,15L236,420L236,420z M261,424v-4v-3c0-4-1-7-3-9l-12-13l8-14l17,4c3,1,7,0,9-2c3-1,5-3,7-4c3-1,5-4,6-7l6-16
		h15l5,16c1,3,4,6,7,7c2,1,4,3,6,4c3,2,6,3,10,2l17-4l7,14l-11,13c-3,2-4,5-3,9v3v4c-1,3,0,7,3,9l11,13l-7,14l-17-4c-4-1-7,0-10,2
		c-2,1-4,2-6,4c-3,1-6,4-7,7l-5,16h-15l-6-16c-1-3-3-6-6-7c-2-2-5-3-7-4c-2-2-6-3-9-2l-17,4l-8-14l12-13C260,431,261,427,261,424
		L261,424z"/>
</g>
</svg>
