<?xml version="1.0" encoding="utf-8"?>
<!-- Generator: Adobe Illustrator 16.0.0, SVG Export Plug-In . SVG Version: 6.00 Build 0)  -->
<!DOCTYPE svg PUBLIC "-//W3C//DTD SVG 1.1//EN" "http://www.w3.org/Graphics/SVG/1.1/DTD/svg11.dtd">
<svg version="1.1" id="Layer_1" xmlns="http://www.w3.org/2000/svg" xmlns:xlink="http://www.w3.org/1999/xlink" x="0px" y="0px"
	 width="750px" height="750px" viewBox="-71 20 750 750" enable-background="new -71 20 750 750" xml:space="preserve">
<g>
	<path d="M438.96,698.287c-35.856,15.937-73.705,25.896-113.546,27.889V416.414h122.51v3.984v3.984
		c0.996,0.996,0.996,2.987,0.996,4.979v3.984c0,0.996,0,2.988,0.996,3.984v3.983c0,1.992,0.996,2.988,0.996,4.98v3.984
		c0,0.996,0.996,2.987,0.996,3.983s0,2.988,0.996,3.984v4.98c0.996,0.995,0.996,1.991,0.996,2.987c0,1.992,0.996,2.988,0.996,4.98
		c0,0.996,0.996,1.992,0.996,3.984c0,0.996,0.996,2.987,0.996,3.983c0,1.992,0,2.988,0.996,3.984c0,1.992,0.996,2.988,0.996,4.98
		c0,0.995,0,1.991,0.996,2.987c0,1.992,0.995,3.984,0.995,4.98s0.996,1.992,0.996,2.988c0.996,2.987,1.992,5.976,1.992,7.968
		c0.996,0.996,0.996,1.992,0.996,1.992c0.996,1.992,0.996,3.984,1.992,5.976c0,0.996,0.996,1.992,0.996,3.984
		c0.996,0.996,0.996,2.988,1.992,3.984c0,0.996,0.996,2.988,0.996,3.984c0.996,0.995,0.996,2.987,1.991,3.983
		c0,0.996,0.996,2.988,0.996,3.984c0.996,0.996,0.996,2.988,1.992,3.984c0.996,0.995,0.996,1.991,1.992,3.983
		c0,0.996,0.996,1.992,0.996,3.984c0.996,0.996,0.996,1.992,1.992,2.988c0.996,1.992,0.996,2.987,1.992,3.983
		c0,1.992,0.996,2.988,1.992,3.984c0,0.996,0.995,2.988,1.991,3.984c0,0.996,0.996,1.992,0.996,3.983
		c0.996,0.996,1.992,1.992,1.992,3.984c0.996,0.996,1.992,1.992,1.992,2.988c0.996,0.996,1.992,2.988,2.988,3.984
		c0,0.995,0.996,1.991,0.996,3.983c0.996,0.996,1.991,1.992,2.987,3.984c0,0.996,0.996,1.992,1.992,2.988s0.996,2.987,1.992,3.983
		s0.996,1.992,1.992,2.988c0.996,1.992,1.992,2.988,2.988,4.98l1.992,1.992c0.995,2.987,2.987,4.979,3.983,6.972l1.992,1.992
		c0.996,1.992,1.992,2.988,2.988,4.979c0.996,0.996,1.992,1.992,1.992,2.988c0.996,0.996,1.991,2.988,3.983,3.984
		c0,0.996,0.996,1.992,1.992,2.988s1.992,1.991,2.988,3.983c0.996,0.996,0.996,1.992,1.992,2.988c0.996,0,1.992,0.996,1.992,1.992
		C505.694,661.434,473.821,683.346,438.96,698.287L438.96,698.287L438.96,698.287z M74.419,634.542
		c0.996-0.996,0.996-1.992,1.992-1.992c0.996-0.996,1.992-1.992,1.992-2.988c0.996-1.992,1.992-2.987,2.988-3.983l2.988-2.988
		c0.996-0.996,1.992-2.988,2.988-3.984c0-0.996,0.996-1.992,1.992-2.988c0.996-1.991,1.992-2.987,3.984-4.979
		c0-0.996,0-0.996,0.996-1.992c0.996-1.992,2.988-3.984,3.984-6.972l1.992-1.992c0.996-1.992,1.992-2.988,2.988-4.98
		c0.996-0.996,0.996-1.992,1.992-2.988s1.992-2.987,1.992-3.983c0.996-0.996,1.992-1.992,1.992-2.988
		c0.996-1.992,1.992-2.988,2.988-4.98c0-0.996,0.996-1.992,1.992-2.987c0-0.996,0.996-2.988,1.992-3.984
		c0-0.996,0.996-1.992,1.992-2.988c0-1.992,0.996-2.988,1.992-3.984c0-1.991,0.996-2.987,1.992-3.983
		c0-0.996,0.996-2.988,1.992-3.984c0-0.996,0.996-1.992,0.996-3.984c0.996-0.996,1.992-1.991,1.992-3.983
		c0.996-0.996,0.996-1.992,1.992-2.988c0-1.992,0.996-2.988,1.992-3.984c0-1.992,0.996-2.988,0.996-3.983
		c0.996-0.996,0.996-2.988,1.992-3.984c0-0.996,0.996-2.988,0.996-3.984c0.996-0.996,0.996-2.988,1.992-3.983
		c0-0.996,0.996-2.988,0.996-3.984c0.996-0.996,0.996-2.988,1.992-4.98c0-0.996,0.996-1.992,0.996-2.988
		c0.996-1.991,0.996-3.983,1.992-5.976c0-0.996,0-0.996,0.996-1.992c0-1.992,0.996-4.98,1.992-7.968
		c0-0.996,0.996-1.992,0.996-2.988s0.996-2.988,0.996-4.98c0.996-0.996,0.996-1.992,0.996-2.987c0.996-1.992,0.996-2.988,0.996-4.98
		c0.996-0.996,0.996-1.992,0.996-3.984c0.996-0.996,0.996-2.987,0.996-3.983c0.996-1.992,0.996-2.988,0.996-3.984
		c0-1.992,0.996-2.988,0.996-4.98c0-0.996,0-1.992,0.996-2.987c0-1.992,0-3.984,0.996-4.98v-3.984c0-0.996,0.996-2.987,0.996-3.983
		v-3.984c0.996-1.992,0.996-2.988,0.996-4.98v-3.983c0.996-0.996,0.996-2.988,0.996-4.98v-2.988c0-1.992,0.996-3.983,0.996-4.979
		v-3.984v-3.984h122.51v309.762c-38.844-1.992-77.689-11.952-113.545-27.889C134.179,683.346,102.307,661.434,74.419,634.542
		L74.419,634.542L74.419,634.542z M44.538,187.33l4.98,4.98c0,0.996,0.996,0.996,0.996,1.992c0.996,0.996,1.992,2.988,2.988,3.984
		c0.996,0.996,1.992,1.992,1.992,2.988l2.988,2.988c0,0.996,0.996,1.992,1.992,2.988c0,0.996,0.996,1.992,1.992,3.984l1.992,1.992
		c0.996,1.992,0.996,2.988,1.992,3.984c0.996,0.996,0.996,1.992,1.992,2.988s0.996,1.992,1.992,2.988
		c0.996,0.996,0.996,1.992,1.992,2.988c0,0.996,0.996,1.992,1.992,3.984c0,0.996,0.996,1.992,0.996,2.988
		c0.996,0.996,1.992,1.992,1.992,2.988c0.996,0.996,0.996,1.992,1.992,2.988s0.996,2.988,1.992,3.984
		c0.996,0.996,0.996,1.992,0.996,2.988c0.996,0.996,1.992,2.988,2.988,4.98c0,0.996,0.996,0.996,0.996,1.992l2.988,5.976
		c0,0.996,0,1.992,0.996,2.988c0,0.996,0.996,1.992,1.992,3.984c0,0.996,0,1.992,0.996,2.988c0,0.996,0.996,1.992,0.996,3.984
		c0.996,0.996,0.996,1.992,1.992,2.988c0,0.996,0.996,1.992,0.996,2.988c0.996,0.996,0.996,2.988,0.996,3.984
		c0.996,0.996,0.996,1.992,1.992,2.988c0,0.996,0,2.988,0.996,3.984c0,0.996,0.996,1.992,0.996,2.988
		c0,1.992,0.996,2.988,0.996,3.984s0.996,1.992,0.996,3.984c0,0.996,0.996,1.992,0.996,2.988c0,0.996,0.996,2.988,0.996,3.984
		c0.996,0.996,0.996,1.992,0.996,2.988c0,1.992,0.996,2.988,0.996,4.98c0,0.996,0.996,0.996,0.996,1.992
		c0,1.992,0.996,4.98,0.996,6.972c0.996,0.996,0.996,1.992,0.996,1.992c0,1.992,0.996,3.984,0.996,5.976v1.992
		c0.996,1.992,0.996,2.988,0.996,4.98c0,0.996,0.996,1.992,0.996,2.988v3.984c0.996,0.996,0.996,1.992,0.996,2.988v4.98
		c0.996,0.996,0.996,1.992,0.996,2.988v3.984c0,0.996,0,1.992,0.996,2.988v4.98v2.988v0.996H-27.175
		C-23.191,304.86,1.709,240.119,44.538,187.33L44.538,187.33L44.538,187.33z M117.247,420.398v4.98
		c-0.996,0.996-0.996,1.991-0.996,2.987v3.984c0,0.996,0,1.992-0.996,2.988v4.979c0,0.996,0,1.992-0.996,2.988v3.984
		c0,0.996-0.996,1.992-0.996,2.988c0,1.991,0,2.987-0.996,4.979v1.992c0,1.992-0.996,3.984-0.996,5.977c0,0.995,0,0.995-0.996,1.991
		c0,1.992-0.996,3.984-0.996,6.973c0,0,0,0.996-0.996,0.996c0,1.992,0,3.983-0.996,5.976c0,0.996,0,1.992-0.996,2.988
		c0,0.996,0,2.988-0.996,3.984c0,0.996,0,1.992-0.996,2.987c0,0.996-0.996,2.988-0.996,3.984s-0.996,1.992-0.996,2.988
		c0,1.992-0.996,2.988-0.996,3.984c-0.996,0.996-0.996,1.991-0.996,2.987c-0.996,1.992-0.996,2.988-1.992,3.984
		c0,0.996,0,1.992-0.996,2.988c0,1.992-0.996,2.988-0.996,4.979c-0.996,0-0.996,0.996-0.996,1.992
		c-0.996,1.992-1.992,2.988-1.992,4.98c-0.996,0-0.996,0.996-0.996,1.992c-0.996,1.992-1.992,2.988-1.992,4.979
		c-0.996,0.996-0.996,0.996-0.996,1.992c-1.992,3.984-3.984,8.964-6.972,12.948c0,0.996,0,1.992-0.996,1.992
		c0,1.992-0.996,2.988-1.992,4.98c-0.996,0.996-0.996,1.991-0.996,1.991c-0.996,1.992-1.992,2.988-2.988,3.984
		c0,0.996-0.996,1.992-0.996,2.988c-0.996,0.996-1.992,2.988-1.992,3.984c-0.996,0.995-0.996,1.991-1.992,2.987
		c-0.996,0.996-0.996,1.992-1.992,2.988s-0.996,1.992-1.992,2.988s-0.996,1.992-1.992,3.984l-1.992,1.991
		c-0.996,0.996-1.992,2.988-2.988,3.984c0,0.996-0.996,1.992-0.996,1.992c-0.996,1.992-1.992,2.988-2.988,3.984
		c-0.996,0.995-0.996,1.991-1.992,1.991c-0.996,1.992-1.992,3.984-2.988,4.98c0,0.996-0.996,0.996-0.996,0.996
		c-1.992,1.992-2.988,3.984-4.98,5.976C1.709,549.881-23.191,485.139-27.175,416.414h144.422v0.996V420.398L117.247,420.398z
		 M169.04,91.713c35.856-16.933,74.701-25.896,113.545-27.889v309.761h-122.51v-3.984v-3.984c0-1.992-0.996-2.988-0.996-4.98v-3.984
		c0-0.996,0-2.988-0.996-3.984v-3.984c0-1.992,0-2.988-0.996-4.98v-3.984c0-0.996-0.996-2.988-0.996-3.984v-3.984
		c-0.996-1.992-0.996-2.988-0.996-4.98c-0.996-0.996-0.996-1.992-0.996-2.988c0-1.992-0.996-3.984-0.996-4.98s0-2.988-0.996-3.984
		c0-0.996,0-2.988-0.996-4.98c0-0.996,0-1.992-0.996-2.988c0-1.992,0-2.988-0.996-4.98c0-0.996,0-1.992-0.996-2.988
		c0-1.992-0.996-3.984-0.996-5.976c0-0.996-0.996-1.992-0.996-1.992c-0.996-2.988-1.992-5.976-1.992-7.968v-0.996
		c-0.996-1.992-1.992-4.98-2.988-6.972c0-0.996-0.996-1.992-0.996-2.988c0-1.992-0.996-3.984-1.992-4.98
		c0-0.996-0.996-1.992-0.996-2.988c-0.996-1.992-0.996-3.984-1.992-4.98c0-0.996-0.996-1.992-0.996-3.984
		c-0.996-0.996-0.996-2.988-1.992-3.984c0-0.996-0.996-1.992-0.996-2.988c-0.996-1.992-1.992-2.988-1.992-4.98
		c-0.996-0.996-0.996-1.992-1.992-2.988c0-1.992-0.996-2.988-1.992-4.98c0-0.996-0.996-1.992-0.996-2.988
		c-0.996-0.996-1.992-2.988-2.988-3.984c0-0.996-0.996-1.992-0.996-3.984c-0.996-0.996-1.992-1.992-1.992-3.984
		c-0.996-0.996-1.992-1.992-1.992-2.988c-0.996-1.992-1.992-2.988-1.992-3.984c-0.996-0.996-1.992-1.992-1.992-3.984
		c-0.996-0.996-1.992-1.992-2.988-3.984c0-0.996-0.996-1.992-1.992-2.988c0-0.996-0.996-2.988-1.992-3.984
		c-0.996-0.996-0.996-1.992-1.992-2.988c-0.996-1.992-1.992-3.984-2.988-4.98c-0.996-0.996-0.996-1.992-1.992-1.992
		c-0.996-2.988-2.988-4.98-3.984-6.972l-0.996-0.996c-0.996-1.992-2.988-3.984-3.984-5.976c-0.996-0.996-0.996-1.992-1.992-2.988
		c-0.996-0.996-1.992-2.988-2.988-3.984l-2.988-2.988c-0.996-0.996-1.992-1.992-2.988-3.984c0-0.996-0.996-1.992-1.992-2.988
		l-1.992-1.992C102.307,128.566,134.179,106.653,169.04,91.713L169.04,91.713L169.04,91.713z M533.582,155.458
		c0,0.996-0.996,0.996-1.992,1.992s-0.996,1.992-1.992,2.988s-1.992,2.988-2.988,3.984s-1.992,1.992-1.992,2.988
		c-1.992,0.996-2.987,2.988-3.983,3.984c0,0.996-0.996,1.992-1.992,2.988c-0.996,1.992-1.992,3.984-3.984,4.98
		c0,0.996,0,0.996-0.996,1.992c-0.996,1.992-2.988,3.984-3.983,6.972c-0.996,0-0.996,0.996-1.992,1.992s-1.992,2.988-2.988,4.98
		c0,0.996-0.996,1.992-1.992,2.988c-0.996,0.996-0.996,2.988-1.992,3.984s-1.992,1.992-1.992,2.988
		c-0.996,1.992-1.991,2.988-2.987,3.984c0,0.996-0.996,2.988-0.996,3.984c-0.996,0.996-1.992,1.992-2.988,3.984
		c0,0.996-0.996,1.992-0.996,2.988c-0.996,1.992-1.992,2.988-2.988,3.984c0,0.996-0.996,2.988-0.996,3.984
		c-0.996,0.996-1.991,2.988-1.991,3.984c-0.996,0.996-1.992,1.992-1.992,2.988c-0.996,1.992-0.996,2.988-1.992,4.98
		c-0.996,0.996-0.996,1.992-1.992,2.988c0,0.996-0.996,2.988-1.992,3.984c0,1.992,0,2.988-0.996,3.984s-0.996,2.988-1.992,3.984
		c0,0.996-0.996,2.988-0.996,3.984c-0.995,0.996-0.995,2.988-1.991,3.984c0,0.996-0.996,1.992-0.996,3.984
		c-0.996,0.996-0.996,2.988-1.992,4.98c0,0.996-0.996,1.992-0.996,1.992c-0.996,2.988-1.992,4.98-1.992,7.968l-0.996,0.996
		c0,1.992-0.996,4.98-1.992,7.968c0,0,0,0.996-0.996,1.992c0,1.992-0.995,3.984-0.995,5.976c0,0.996-0.996,1.992-0.996,2.988
		c0,1.992-0.996,2.988-0.996,4.98c-0.996,0.996-0.996,1.992-0.996,2.988c0,1.992-0.996,3.984-0.996,4.98s-0.996,2.988-0.996,3.984
		s-0.996,2.988-0.996,4.98c0,0.996,0,1.992-0.996,2.988v4.98c-0.996,0.996-0.996,1.992-0.996,3.984c0,0.996-0.996,2.988-0.996,3.984
		v3.984c0,1.992-0.996,2.988-0.996,4.98v3.984c-0.996,0.996-0.996,2.988-0.996,3.984v3.984c0,1.992,0,2.988-0.996,4.98v3.984v3.984
		h-122.51V63.824c39.841,1.992,77.689,10.956,113.546,27.889C473.821,106.653,505.694,128.566,533.582,155.458L533.582,155.458
		L533.582,155.458z M490.753,373.586v-0.996v-2.988c0-1.992,0-2.988,0.996-4.98v-2.988v-3.984c0-0.996,0.996-1.992,0.996-2.988
		v-4.98c0-0.996,0.996-1.992,0.996-2.988v-3.984c0.996-0.996,0.996-1.992,0.996-2.988c0-1.992,0-2.988,0.996-4.98v-1.992
		c0.996-1.992,0.996-3.984,0.996-5.976c0,0,0.995-0.996,0.995-1.992c0-1.992,0.996-4.98,0.996-6.972
		c0-0.996,0.996-0.996,0.996-1.992c0-1.992,0.996-2.988,0.996-4.98c0-0.996,0.996-1.992,0.996-2.988s0.996-2.988,0.996-3.984
		c0-0.996,0.996-1.992,0.996-2.988c0-1.992,0.996-2.988,0.996-3.984s0.996-1.992,0.996-3.984c0.996-0.996,0.996-1.992,0.996-2.988
		c0.996-0.996,0.996-2.988,1.992-3.984c0-0.996,0-1.992,0.996-2.988c0-1.992,0.995-2.988,0.995-3.984
		c0-0.996,0.996-1.992,0.996-2.988c0.996-0.996,0.996-1.992,1.992-3.984c0-0.996,0.996-1.992,0.996-2.988
		c0.996-0.996,0.996-1.992,0.996-2.988c0.996-1.992,1.992-2.988,1.992-4.98c0.996,0,0.996-0.996,0.996-1.992l2.988-5.976
		c0-0.996,0.995-0.996,0.995-1.992c0.996-1.992,1.992-3.984,2.988-4.98c0-0.996,0.996-1.992,0.996-2.988
		c0.996-0.996,0.996-2.988,1.992-3.984s0.996-1.992,1.992-2.988c0-0.996,0.996-1.992,1.992-3.984c0,0,0.996-0.996,0.996-1.992
		c0.996-1.992,1.991-2.988,1.991-3.984c0.996-0.996,1.992-1.992,1.992-2.988c0.996-0.996,1.992-1.992,1.992-2.988
		c0.996-0.996,0.996-1.992,1.992-2.988c0.996-0.996,1.992-2.988,1.992-3.984c0.996-0.996,1.992-0.996,1.992-1.992
		c0.996-1.992,1.991-2.988,2.987-3.984c0-0.996,0.996-1.992,0.996-2.988l2.988-2.988c0.996-0.996,0.996-1.992,1.992-2.988
		c0.996-0.996,1.992-2.988,2.988-3.984c0-0.996,0.996-0.996,0.996-1.992l4.979-4.98c42.829,52.789,67.729,117.53,71.714,186.255
		H490.753L490.753,373.586z M563.462,602.669c-1.992-1.991-2.987-3.983-4.979-5.976l-0.996-0.996
		c-0.996-0.996-1.992-2.988-2.988-4.98c-0.996,0-0.996-0.996-1.992-1.991c-0.996-0.996-1.992-1.992-2.988-3.984
		c0,0-0.996-0.996-0.996-1.992c-0.996-0.996-1.991-2.988-2.987-3.984c0-0.996-0.996-0.996-1.992-1.991
		c0-1.992-0.996-2.988-1.992-3.984s-0.996-1.992-1.992-2.988c0-0.996-0.996-1.992-1.992-2.988c0-0.996-0.996-1.992-0.996-2.987
		c-0.996-0.996-1.991-2.988-2.987-3.984c0-0.996-0.996-1.992-0.996-2.988c-0.996-0.996-1.992-1.992-1.992-3.984
		c-0.996,0-0.996-0.995-1.992-1.991c-0.996-1.992-0.996-2.988-1.992-4.98c-0.996,0-0.996-0.996-0.996-1.992
		c-1.992-3.984-4.979-8.964-6.972-12.948v-1.992c-0.996-1.991-1.992-2.987-2.988-4.979c0-0.996,0-0.996-0.996-1.992
		c0-1.992-0.996-2.988-0.996-4.98c-0.996-0.996-0.996-1.992-0.996-1.992c-0.996-1.991-1.992-2.987-1.992-4.979
		c0-0.996-0.995-1.992-0.995-1.992c-0.996-1.992-0.996-2.988-1.992-4.98c0-0.996,0-1.991-0.996-2.987c0-0.996,0-1.992-0.996-3.984
		c0-0.996-0.996-1.992-0.996-2.988s-0.996-2.988-0.996-3.984c0-0.995-0.996-1.991-0.996-2.987s-0.996-2.988-0.996-3.984
		s-0.996-1.992-0.996-2.988c0-1.992-0.996-3.983-0.996-5.976l-0.996-0.996c0-2.988-0.996-4.98-0.996-6.973
		c0-0.996-0.995-0.996-0.995-1.991c0-1.992,0-3.984-0.996-5.977v-1.992c-0.996-1.992-0.996-2.988-0.996-4.979
		c0-0.996,0-1.992-0.996-2.988v-3.984c0-0.996-0.996-1.992-0.996-2.988v-4.979c0-0.996-0.996-1.992-0.996-2.988v-3.984v-2.987
		c-0.996-1.992-0.996-2.988-0.996-4.98v-2.988v-0.996h144.423C631.192,485.139,606.291,549.881,563.462,602.669L563.462,602.669
		L563.462,602.669z M578.403,139.522c-33.864-36.853-75.697-66.733-121.514-87.649C408.084,30.956,357.287,20,304.498,20
		c-53.785,0-104.582,10.956-152.391,31.873c-46.813,20.917-87.649,50.797-122.51,87.649C-35.143,209.243-71,299.88-71,394.502
		c0,95.617,35.856,186.255,100.598,255.977c34.86,36.853,75.697,66.732,122.51,87.649C199.917,759.044,250.713,770,304.498,770
		c52.789,0,103.586-10.956,152.391-31.872c45.816-20.917,87.649-50.797,121.514-87.649C643.144,580.757,679,490.119,679,394.502
		C679,299.88,643.144,209.243,578.403,139.522L578.403,139.522z"/>
</g>
</svg>
