<?xml version="1.0" encoding="utf-8"?>
<!-- Generator: Adobe Illustrator 16.0.0, SVG Export Plug-In . SVG Version: 6.00 Build 0)  -->
<!DOCTYPE svg PUBLIC "-//W3C//DTD SVG 1.1//EN" "http://www.w3.org/Graphics/SVG/1.1/DTD/svg11.dtd">
<svg version="1.1" id="Layer_1" xmlns="http://www.w3.org/2000/svg" xmlns:xlink="http://www.w3.org/1999/xlink" x="0px" y="0px"
	 width="853px" height="750px" viewBox="-121 21 853 750" enable-background="new -121 21 853 750" xml:space="preserve">
<g>
	<path d="M689,652H358c6-4,13-8,20-12c1-1,2-1,2-2h1l6-3c0,0,1,0,1-1l6-3c1,0,1,0,2-1c1,0,3-1,4-1c21-10,49-20,84-27h1c2-1,4-1,5-1
		c2-1,4-1,6-2h1c40-7,80-10,115-10h6h1h7c12,0,21-10,21-21V168h42V652L689,652z M-77,168h41v400c0,11,10,21,22,21h6h1h6
		c36,0,79,3,121,11l1,1c2,0,4,0,6,1c1,0,2,0,3,1h2c31,7,56,15,76,24c1,1,2,1,3,2c1,0,2,0,3,1l6,3h1l6,3l1,1c1,0,2,1,3,1c1,1,1,1,2,1
		c0,1,1,1,2,2h1c1,1,2,1,2,2h2c0,1,1,1,2,2h1l2,2c0,0,1,0,1,1c1,0,1,0,2,1c0,0,1,0,1,1c1,0,1,0,2,1h1l1,1H-77V168L-77,168z M8,63
		c66,2,152,12,219,48c34,17,50,35,57,43v468c-1-1-2-1-2-2h-1l-1-1h-1c0-1-1-1-1-1c0-1-1-1-1-1l-1-1h-1l-2-2c-1,0-2-1-2-1
		c-1,0-1,0-1-1c-1,0-1,0-2-1c-1,0-1-1-2-1c0,0-1,0-1-1c0,0-1,0-1-1h-1c-1,0-2-1-2-1h-1c0-1-1-1-2-2h-1c0-1-1-1-2-1c0-1,0-1-1-1
		c0,0-1,0-1-1h-1c-1-1-1-1-2-1l-1-1c-2-1-4-2-5-3h-1c-1,0-2-1-2-1c-1,0-1,0-1-1c-1,0-2,0-2-1h-1c-1,0-2-1-2-1h-1c-1-1-2-1-3-2
		c-1,0-2-1-4-1v-1c-1,0-2,0-3-1h-1c-1,0-1-1-2-1c0,0-1,0-1-1c-1,0-2,0-3-1c-2,0-3-1-4-1c-1-1-2-1-3-2h-1c-1,0-2-1-3-1h-1
		c-1-1-2-1-3-1c0,0,0-1-1-1s-2,0-2-1h-1c-2-1-3-1-4-1l-1-1c-1,0-2,0-3-1h-1c-1,0-2-1-3-1h-1c-1-1-2-1-3-1c0,0-1,0-1-1c-1,0-2,0-3-1
		h-1c-2,0-3-1-4-1h-1c-1-1-2-1-4-1c0,0-1,0-1-1h-3l-1-1c-1,0-2,0-3-1h-2c-1,0-2,0-3-1h-1c-2,0-3-1-5-1h-1c-1-1-2-1-3-1h-2
		c-1-1-2-1-3-1c0,0-1,0-2-1h-3h-1c-1-1-3-1-4-1h-1c-2-1-3-1-5-1l-1-1h-4c0,0-1,0-2-1h-3h-2c-1-1-2-1-3-1h-2c-1-1-3-1-4-1h-1
		c-2,0-3-1-5-1h-2c-1,0-2,0-4-1h-2h-3c-1,0-1,0-2-1h-4h-2c-1,0-3-1-4-1h-1h-6c0,0-1,0-2-1h-4h-2h-3c-1,0-2-1-3-1h-4h-2h-5h-1
		c-2-1-4-1-6-1h-2h-4h-2h-4c-1,0-2-1-3-1h-4h-2H8V147V63L8,63z M384,111c67-36,153-46,220-48v84v400h-7h-2h-4c-1,0-2,1-2,1h-5h-2h-4
		h-2c-2,0-4,0-6,1h-1h-5h-2h-4c-1,0-1,1-2,1h-4h-2h-4c-1,0-1,1-2,1h-5h-1c-2,0-4,1-5,1h-2h-4c0,1-1,1-2,1h-3h-2c-1,1-3,1-4,1h-1
		c-2,0-4,1-6,1h-1c-1,0-2,0-4,1h-2c-1,0-2,0-3,1h-2h-3c-1,1-1,1-2,1h-3c-1,0-1,1-2,1s-3,0-5,1h-1h-3c-1,1-2,1-2,1h-3c-1,1-1,1-2,1
		s-2,0-3,1h-2c-1,0-2,0-3,1h-1c-2,0-3,1-4,1h-2c-1,1-2,1-3,1c0,0-1,0-2,1h-2c-1,0-1,1-2,1h-3c0,1-1,1-1,1c-1,0-2,0-3,1h-1
		c-2,0-3,1-4,1s-1,0-2,1h-2c-1,1-1,1-2,1s-1,0-2,1h-2c-1,0-1,1-2,1h-2c-1,1-2,1-3,1c0,0,0,1-1,1s-2,0-3,1h-1c-1,1-2,1-3,1l-1,1
		c-1,0-2,0-2,1h-2c-1,0-1,1-2,1h-1c-1,1-2,1-3,1c0,1-1,1-1,1c-1,0-2,1-3,1s-1,0-1,1h-2c-1,1-1,1-2,1c0,0-1,1-2,1h-1c-1,1-1,1-2,1
		l-1,1c-1,0-2,1-3,1c-1,1-2,1-3,2h-1c-1,0-2,1-2,1c-1,0-1,0-1,1h-2l-1,1c-1,0-2,1-2,1h-1c-1,1-2,1-3,2c-1,0-2,1-3,1c0,0,0,1-1,1
		c0,0-1,0-1,1h-1c-1,1-2,1-2,1s-1,0-1,1c-1,0-1,0-2,1h-1c0,1-1,1-2,2c-1,0-2,1-2,1h-1c-1,1-1,1-2,1c0,1,0,1-1,1l-1,1h-1
		c-1,1-1,1-2,1v1c-1,0-2,1-2,1h-1c0,1-1,1-2,2c-1,0-1,1-2,1v1c-1,0-1,0-2,1h-1c0,0,0,1-1,1c-1,1-2,1-2,2V154
		C334,146,351,128,384,111L384,111L384,111z M710,126h-63V42c0-12-9-21-21-21c-196,0-285,60-320,93C271,81,181,21-14,21
		c-12,0-22,9-22,21v84h-63c-12,0-22,9-22,21v526c0,11,10,21,22,21h401h4h3h401c13,0,22-10,22-21V147C732,135,723,126,710,126
		L710,126L710,126z M356,731h-95c-12,0-22,9-22,20s10,20,22,20h95c12,0,21-9,21-20S368,731,356,731L356,731z"/>
</g>
</svg>
