<?xml version="1.0" encoding="utf-8"?>
<!-- Generator: Adobe Illustrator 16.0.0, SVG Export Plug-In . SVG Version: 6.00 Build 0)  -->
<!DOCTYPE svg PUBLIC "-//W3C//DTD SVG 1.1//EN" "http://www.w3.org/Graphics/SVG/1.1/DTD/svg11.dtd">
<svg version="1.1" id="Layer_1" xmlns="http://www.w3.org/2000/svg" xmlns:xlink="http://www.w3.org/1999/xlink" x="0px" y="0px"
	 width="541px" height="750px" viewBox="35 22 541 750" enable-background="new 35 22 541 750" xml:space="preserve">
<g>
	<path d="M127,243h182c12,0,22-9,22-21s-10-22-22-22H127c-12,0-22,10-22,22S115,243,127,243L127,243L127,243z M109,321
		c0,12,10,22,22,22h349c12,0,22-10,22-22c0-11-10-21-22-21H131C119,300,109,310,109,321L109,321L109,321z M533,712L316,583
		c-3-2-7-3-11-3c-3,0-7,1-11,3L78,712V65h455V712L533,712z M565,769c7-4,11-11,11-19V44c0-12-10-22-22-22H56c-11,0-21,10-21,22v706
		c0,8,4,15,11,19c3,2,7,3,10,3c4,0,8-1,11-3l238-143l238,143C550,773,558,773,565,769L565,769z"/>
</g>
</svg>
