<?xml version="1.0" encoding="utf-8"?>
<!-- Generator: Adobe Illustrator 16.0.0, SVG Export Plug-In . SVG Version: 6.00 Build 0)  -->
<!DOCTYPE svg PUBLIC "-//W3C//DTD SVG 1.1//EN" "http://www.w3.org/Graphics/SVG/1.1/DTD/svg11.dtd">
<svg version="1.1" id="Layer_1" xmlns="http://www.w3.org/2000/svg" xmlns:xlink="http://www.w3.org/1999/xlink" x="0px" y="0px"
	 width="826.102px" height="750px" viewBox="-107 22 826.102 750" enable-background="new -107 22 826.102 750"
	 xml:space="preserve">
<g>
	<path d="M676.044,585.752c0,17.022-14.019,31.041-31.041,31.041H418.701c-6.008,0-11.015,2.003-15.021,6.008l-97.129,97.13
		l-97.13-97.13c-5.007-4.005-10.013-6.008-16.021-6.008H-31.9c-17.022,0-32.042-14.019-32.042-31.041V96.098
		c0-17.022,15.02-31.041,32.042-31.041h676.903c17.022,0,31.041,14.019,31.041,31.041V585.752L676.044,585.752z M645.003,22H-31.9
		C-72.954,22-107,55.044-107,96.098v489.653c0,41.055,34.045,74.099,75.1,74.099h216.289l106.142,106.142
		c4.005,4.005,10.013,6.008,16.021,6.008c5.006,0,11.015-2.003,15.02-6.008L427.713,659.85h217.29
		c40.054,0,74.099-33.044,74.099-74.099V96.098C719.102,55.044,685.057,22,645.003,22L645.003,22L645.003,22z M565.898,218.261
		H46.204c-12.016,0-22.029,10.013-22.029,22.029c0,11.015,10.014,21.028,22.029,21.028h519.693
		c12.016,0,22.029-10.014,22.029-21.028C587.927,228.275,577.913,218.261,565.898,218.261L565.898,218.261L565.898,218.261z
		 M565.898,324.403H46.204c-12.016,0-22.029,10.013-22.029,21.028c0,12.016,10.014,22.029,22.029,22.029h519.693
		c12.016,0,22.029-10.013,22.029-22.029C587.927,334.416,577.913,324.403,565.898,324.403L565.898,324.403L565.898,324.403z
		 M354.615,430.545H46.204c-12.016,0-22.029,9.012-22.029,21.028c0,12.016,10.014,22.029,22.029,22.029h308.411
		c12.017,0,22.029-10.014,22.029-22.029C376.645,439.556,366.632,430.545,354.615,430.545L354.615,430.545z"/>
</g>
</svg>
