<?xml version="1.0" encoding="utf-8"?>
<!-- Generator: Adobe Illustrator 18.1.1, SVG Export Plug-In . SVG Version: 6.00 Build 0)  -->
<svg version="1.1" id="Layer_1" xmlns="http://www.w3.org/2000/svg" xmlns:xlink="http://www.w3.org/1999/xlink" x="0px" y="0px"
	 viewBox="0 0 750 750" enable-background="new 0 0 750 750" xml:space="preserve">
<g>
	<path d="M240.8,406.3h-57.7c-10.4,0-18.8,8.4-18.8,18.8c0,10.4,8.4,18.8,18.8,18.8h57.7c10.4,0,18.8-8.4,18.8-18.8
		C259.6,414.7,251.2,406.3,240.8,406.3z"/>
	<path d="M538.5,323.8c11.9,0,23.3,2.1,33.6,5.9l-31.6-64c-15.7-46.7-31.2-63.2-59-63.2H272.7c-28,0-41.9,14.9-59.1,63.4l-32.5,62.7
		c9.4-3.1,19.7-4.8,30.4-4.8H538.5z"/>
	<path d="M444.5,416.3H310.4c-6.6,0-11.9,5.3-11.9,11.9c0,6.6,5.3,11.9,11.9,11.9h134.1c6.6,0,11.9-5.3,11.9-11.9
		C456.4,421.6,451.1,416.3,444.5,416.3z"/>
	<path d="M375,0C167.9,0,0,167.9,0,375c0,207.1,167.9,375,375,375s375-167.9,375-375C750,167.9,582.1,0,375,0z M623.9,431.2
		c0,5.2-0.6,10.2-1.8,15.1c1.1,2.9,1.8,6.1,1.8,9.4v99.2c0,14.5-11.8,26.3-26.3,26.3h-51.5c-14.5,0-26.3-11.8-26.3-26.3v-49.6H233.4
		v49.6c0,14.5-11.8,26.3-26.3,26.3h-54.7c-14.5,0-26.3-11.8-26.3-26.3v-99.2c0-3.3,0.6-6.5,1.8-9.4c-1.2-4.9-1.8-9.9-1.8-15.1v-33.3
		c0-12.7,3.7-24.7,10.3-35.2l45.3-107.4c15.5-43.8,35.2-86.5,91.2-86.5h208.7c54.6,0,76.1,41.7,91.3,86.7l0.3,1l43.2,107.2
		c0.6,2.2,1.1,4.4,1.5,6.5c4,8.6,6.2,17.9,6.2,27.7V431.2z"/>
	<path d="M565.4,406.3h-57.7c-10.4,0-18.8,8.4-18.8,18.8c0,10.4,8.4,18.8,18.8,18.8h57.7c10.4,0,18.8-8.4,18.8-18.8
		C584.2,414.7,575.8,406.3,565.4,406.3z"/>
</g>
</svg>
