<?xml version="1.0" encoding="utf-8"?>
<!-- Generator: Adobe Illustrator 16.0.0, SVG Export Plug-In . SVG Version: 6.00 Build 0)  -->
<!DOCTYPE svg PUBLIC "-//W3C//DTD SVG 1.1//EN" "http://www.w3.org/Graphics/SVG/1.1/DTD/svg11.dtd">
<svg version="1.1" id="Layer_1" xmlns="http://www.w3.org/2000/svg" xmlns:xlink="http://www.w3.org/1999/xlink" x="0px" y="0px"
	 width="921.125px" height="750px" viewBox="-155 21 921.125 750" enable-background="new -155 21 921.125 750"
	 xml:space="preserve">
<g>
	<path d="M695.75,318h-17c-7-55-54-98-111-98s-104,43-110,98h-337c-6-55-53-98-110-98s-104,43-110,98h-5l-7-33l26-114h70
		c6,0,12-3,16-7c0-1,23-27,52-52c34-31,65-48,83-48h160c4,0,16,1,44,19c20,12,43,29,63,44c38,27,58,41,73,44c29,5,186,39,243,52
		L695.75,318L695.75,318z M749.75,186c-10-2-229-51-266-58c-8-2-36-22-55-36c-57-42-100-71-133-71h-160c-31,0-67,19-112,59
		c-22,19-40,38-49,48h-77c-10,0-18,7-21,17l-31,135c-1,3-1,6,0,9l12,55c2,10,11,17,21,17h43c12,0,21-9,21-21v-3v-6c0-37,31-68,68-68
		c38,0,68,31,68,68v7c-1,6,1,12,5,16c4,5,10,7,16,7h379c12,0,22-9,22-21v-3c-1-2-1-4-1-6c0-37,31-68,68-68c38,0,68,31,68,68v7
		c-1,6,1,12,6,16c4,5,9,7,15,7h56c10,0,19-6,21-16l32-133c1-5,0-11-3-16S754.75,187,749.75,186L749.75,186L749.75,186z M567.75,448
		c34,0,64-20,76-51c5-11,0-23-11-28c-11-4-24,1-28,12c-6,15-21,24-37,24s-30-9-36-24c-4-11-17-16-28-12c-11,5-16,17-12,28
		C504.75,428,534.75,448,567.75,448L567.75,448L567.75,448z M10.75,448c33,0,63-20,76-51c5-11-1-23-12-28c-11-4-23,1-28,12
		c-6,15-20,24-36,24s-30-9-36-24c-5-11-17-16-28-12c-11,5-17,17-12,28C-52.25,428-22.25,448,10.75,448L10.75,448L10.75,448z
		 M713.75,480h-816c-12,0-22,10-22,22s10,21,22,21h387v226c0,12,9,22,21,22s22-10,22-22V523h386c12,0,22-9,22-21
		S725.75,480,713.75,480L713.75,480z"/>
</g>
</svg>
