<?xml version="1.0" encoding="utf-8"?>
<!-- Generator: Adobe Illustrator 16.0.0, SVG Export Plug-In . SVG Version: 6.00 Build 0)  -->
<!DOCTYPE svg PUBLIC "-//W3C//DTD SVG 1.1//EN" "http://www.w3.org/Graphics/SVG/1.1/DTD/svg11.dtd">
<svg version="1.1" id="Layer_1" xmlns="http://www.w3.org/2000/svg" xmlns:xlink="http://www.w3.org/1999/xlink" x="0px" y="0px"
	 width="908.966px" height="750px" viewBox="-149 20.893 908.966 750" enable-background="new -149 20.893 908.966 750"
	 xml:space="preserve">
<g>
	<path d="M363,754.787c0-32,26-57,57-57h24v-149l-66-69l-4,5h-98l55-55l-45-46H-52l17-12c125-73,403-246,403-246c11-7,15-22,9-34
		l-24-59c-7-11-22-15-34-9l-456,278c-12,6-15,21-9,33l44,47v364c0,13,11,24,24,24h443C364,764.787,363,759.787,363,754.787
		L363,754.787L363,754.787z M247,89.787l85-55l-12,81l-88,56L247,89.787L247,89.787z M94,183.787l87-54l-15,82l-88,54L94,183.787
		L94,183.787z M-80,364.787l15-82l87-55l-15,82L-80,364.787L-80,364.787z M-62,484.787l73-73h96l-72,73H-62L-62,484.787z
		 M107,484.787l73-73h98l-74,73H107L107,484.787z M755,284.787c5-5,6-12,4-19c-3-6-10-10-17-10H500H261c-7,0-14,4-17,10
		c-2,7-1,14,4,19l238,248v207h-66c-9,0-16,7-16,16c0,8,7,15,16,15h80h84c8,0,15-7,15-15c0-9-7-16-15-16h-66v-207L755,284.787
		L755,284.787z M500,290.787h201l-46,48h-98H348l-46-48H500L500,290.787z"/>
</g>
</svg>
