<?xml version="1.0" encoding="utf-8"?>
<!-- Generator: Adobe Illustrator 16.0.0, SVG Export Plug-In . SVG Version: 6.00 Build 0)  -->
<!DOCTYPE svg PUBLIC "-//W3C//DTD SVG 1.1//EN" "http://www.w3.org/Graphics/SVG/1.1/DTD/svg11.dtd">
<svg version="1.1" id="Layer_1" xmlns="http://www.w3.org/2000/svg" xmlns:xlink="http://www.w3.org/1999/xlink" x="0px" y="0px"
	 width="679.723px" height="750px" viewBox="-327.86 -363 679.723 750" enable-background="new -327.86 -363 679.723 750"
	 xml:space="preserve">
<path d="M-56.656-123.61v-68.632h204.268c18.084,0,34.042,6.915,47.871,20.728c13.796,13.83,20.711,29.787,20.711,47.871V80.624
	h-68.648v-204.268H-56.689L-56.656-123.61z M351.862,216.259H216.227v68.615h68.615L182.717,387L80.591,284.874h67.021v-68.615
	h-271.254c-18.084,0-34.042-6.915-47.871-20.744c-13.813-13.829-20.728-29.786-20.728-47.871V-123.61H-327.86v-68.632h135.619
	v-68.632h-68.632L-158.749-363l102.125,102.125h-67.02v408.519h475.505V216.259L351.862,216.259z"/>
</svg>
