<?xml version="1.0" encoding="utf-8"?>
<!-- Generator: Adobe Illustrator 18.0.0, SVG Export Plug-In . SVG Version: 6.00 Build 0)  -->
<!DOCTYPE svg PUBLIC "-//W3C//DTD SVG 1.1//EN" "http://www.w3.org/Graphics/SVG/1.1/DTD/svg11.dtd">
<svg version="1.1" id="Layer_1" xmlns="http://www.w3.org/2000/svg" xmlns:xlink="http://www.w3.org/1999/xlink" x="0px" y="0px"
	 viewBox="0 0 750 750" enable-background="new 0 0 750 750" xml:space="preserve">
<path fill="#414142" d="M742.3,707L410.7,375.4L742.3,43.9c9.9-9.9,9.9-26.1,0-36c-9.9-9.9-26.1-9.9-36,0L374.7,339.4L43.2,7.9
	C33.2-2,17.1-2,7.2,7.9c-9.9,9.9-9.9,26.1,0,36l331.5,331.5L7.2,706.9c-9.9,9.9-9.9,26.1,0,36c5,5,11.5,7.5,18,7.5
	c6.5,0,13-2.5,18-7.5l331.5-331.5L706.3,743c5,5,11.5,7.5,18,7.5c6.5,0,13-2.5,18-7.5C752.2,733.1,752.2,716.9,742.3,707z"/>
</svg>
