<?xml version="1.0" encoding="utf-8"?>
<!-- Generator: Adobe Illustrator 16.0.0, SVG Export Plug-In . SVG Version: 6.00 Build 0)  -->
<!DOCTYPE svg PUBLIC "-//W3C//DTD SVG 1.1//EN" "http://www.w3.org/Graphics/SVG/1.1/DTD/svg11.dtd">
<svg version="1.1" id="Layer_1" xmlns="http://www.w3.org/2000/svg" xmlns:xlink="http://www.w3.org/1999/xlink" x="0px" y="0px"
	 width="541.556px" height="750px" viewBox="34 20 541.556 750" enable-background="new 34 20 541.556 750" xml:space="preserve">
<g>
	<path d="M129.745,337.154h182.513c11.969,0,21.941-9.974,21.941-21.941c0-11.968-9.973-20.944-21.941-20.944H129.745
		c-11.968,0-21.941,8.976-21.941,20.944C107.803,327.18,117.777,337.154,129.745,337.154L129.745,337.154L129.745,337.154z
		 M478.814,395H129.745c-11.968,0-21.941,8.977-21.941,19.947c0,11.968,9.973,21.941,21.941,21.941h349.069
		c11.969,0,21.941-9.974,21.941-21.941C500.755,403.976,490.782,395,478.814,395L478.814,395L478.814,395z M462.857,726.117H145.702
		c-37.899,0-68.816-29.92-68.816-67.819V132.699c0-38.896,30.917-68.816,68.816-68.816h187.5c0,0-8.976,42.886-9.974,56.849
		c-6.981,83.776,66.822,156.583,149.602,150.598c14.96-0.997,58.843-8.976,58.843-8.976v395.944
		C531.673,696.197,500.755,726.117,462.857,726.117L462.857,726.117L462.857,726.117z M376.088,93.803l125.665,125.665
		c0,0-21.941,7.979-28.923,8.976c-57.846,8.976-117.687-48.87-107.713-107.713C367.112,113.75,376.088,93.803,376.088,93.803
		L376.088,93.803L376.088,93.803z M574.559,237.42v-0.998v-1.995c0-0.998-0.997-0.998-0.997-1.995c0-0.998-0.998-0.998-0.998-1.995
		c0,0,0-0.998-0.997-0.998v-0.997l-0.997-0.998c-0.997-0.998-0.997-1.995-1.995-1.995L369.107,26.981
		C365.117,22.992,360.13,20,354.147,20H145.702C84.865,20,34,70.864,34,132.699v525.599C34,719.135,84.865,770,145.702,770h317.154
		c61.835,0,112.699-50.864,112.699-111.702V240.412v-1.995C574.559,238.417,574.559,237.42,574.559,237.42L574.559,237.42z"/>
</g>
</svg>
