<?xml version="1.0" encoding="utf-8"?>
<!-- Generator: Adobe Illustrator 16.0.0, SVG Export Plug-In . SVG Version: 6.00 Build 0)  -->
<!DOCTYPE svg PUBLIC "-//W3C//DTD SVG 1.1//EN" "http://www.w3.org/Graphics/SVG/1.1/DTD/svg11.dtd">
<svg version="1.1" id="Layer_1" xmlns="http://www.w3.org/2000/svg" xmlns:xlink="http://www.w3.org/1999/xlink" x="0px" y="0px"
	 width="350.065px" height="750px" viewBox="83.67 -118.787 350.065 750" enable-background="new 83.67 -118.787 350.065 750"
	 xml:space="preserve">
<g id="_x23_020201ff">
	<path fill="#020201" d="M199.03-80.147c29.247-27.848,70.847-37.254,110.088-38.427c41.502-0.373,82.99-0.148,124.493-0.131
		c0.162,43.783,0.178,87.581-0.018,131.361c-26.821-0.047-53.661,0.065-80.482-0.047c-17.006-1.06-34.472,11.833-37.564,28.691
		c-0.406,29.296-0.147,58.608-0.132,87.906c39.339,0.161,78.678-0.049,118.016,0.099c-2.879,42.38-8.139,84.568-14.304,126.592
		c-34.749,0.325-69.516-0.033-104.262,0.18c-0.309,124.996,0.164,249.993-0.244,374.99c-51.61,0.211-103.253-0.1-154.863,0.146
		c-0.977-125.013,0.081-250.091-0.537-375.12c-25.18-0.262-50.374,0.181-75.551-0.21c0.096-42.023,0.033-84.045,0.046-126.054
		c25.162-0.309,50.341,0.064,75.504-0.18c0.765-40.853-0.767-81.754,0.797-122.572C162.539-25.25,174.86-57.818,199.03-80.147z"/>
</g>
</svg>
