<?xml version="1.0" encoding="utf-8"?>
<!-- Generator: Adobe Illustrator 16.0.0, SVG Export Plug-In . SVG Version: 6.00 Build 0)  -->
<!DOCTYPE svg PUBLIC "-//W3C//DTD SVG 1.1//EN" "http://www.w3.org/Graphics/SVG/1.1/DTD/svg11.dtd">
<svg version="1.1" id="Layer_1" xmlns="http://www.w3.org/2000/svg" xmlns:xlink="http://www.w3.org/1999/xlink" x="0px" y="0px"
	 width="750px" height="750px" viewBox="-69 21 750 750" enable-background="new -69 21 750 750" xml:space="preserve">
<g>
	<path d="M306,21C98,21-69,189-69,396S98,771,306,771c207,0,375-168,375-375S513,21,306,21L306,21L306,21z M656,396
		c0,47-10,93-28,136c-18,42-43,79-75,111s-70,58-111,75c-43,18-89,28-136,28c-48,0-94-10-137-28c-41-17-79-43-111-75S1,574-17,532
		c-18-43-27-89-27-136c0-48,9-93,27-137c18-41,43-79,75-111s70-57,111-75c43-18,89-27,137-27c47,0,93,9,136,27c41,18,79,43,111,75
		s57,70,75,111C646,303,656,348,656,396L656,396L656,396z M442,408c-7,0-14,1-20,4c-6-14-20-24-37-24c-9,0-17,2-23,5
		c-7-10-20-17-33-17c-6,0-11,1-16,3v-91c0-23-19-41-41-41c-23,0-41,18-41,41v176l-3-6c-1-3-3-5-5-8c-7-10-20-17-33-17
		c-22,0-41,19-41,41c0,6,2,12,4,17c0,1,1,1,1,1l72,128c10,21,25,39,45,51c20,13,44,20,68,20h18c69,0,126-56,126-126V449
		C483,426,465,408,442,408L442,408L442,408z M458,565c0,56-45,101-101,101h-18c-20,0-38-5-55-16c-15-10-28-24-36-41v-1l-72-128
		c-1-2-2-4-2-6c0-9,8-16,16-16c5,0,10,3,13,7c1,1,2,2,2,3s0,1,1,2l27,47c2,5,8,8,14,6c5-1,9-6,9-12V288c0-9,7-16,16-16s16,7,16,16
		v129c0,7,5,13,12,13s13-6,13-13c0-9,7-16,16-16c8,0,15,7,15,16c0,1,1,1,1,2c-1,1-1,2-1,4c0,7,6,12,13,12s12-5,12-12c0-3,0-10,16-10
		c9,0,16,7,16,16v15v1c0,7,6,13,12,13h1c6,0,12-6,12-13c0-12,13-12,16-12c9,0,16,7,16,16V565L458,565z M272,216c7,0,12-6,12-12v-91
		c0-7-5-13-12-13s-13,6-13,13v91C259,210,265,216,272,216L272,216L272,216z M340,304c0,7,5,13,12,13h91c7,0,13-6,13-13s-6-12-13-12
		h-91C345,292,340,297,340,304L340,304L340,304z M204,304c0-7-6-12-13-12h-90c-7,0-13,5-13,12s6,13,13,13h90
		C198,317,204,311,204,304L204,304L204,304z M334,247c3,0,6-1,9-4l64-64c5-5,5-13,0-18c-5-4-13-4-18,0l-64,65c-5,5-5,12,0,17
		C327,246,331,247,334,247L334,247L334,247z M201,243c3,3,6,4,9,4s6-1,9-4c5-5,5-12,0-17l-64-65c-5-4-13-4-18,0c-5,5-5,13,0,18
		L201,243L201,243z"/>
</g>
</svg>
