<?xml version="1.0" encoding="utf-8"?>
<!-- Generator: Adobe Illustrator 16.0.0, SVG Export Plug-In . SVG Version: 6.00 Build 0)  -->
<!DOCTYPE svg PUBLIC "-//W3C//DTD SVG 1.1//EN" "http://www.w3.org/Graphics/SVG/1.1/DTD/svg11.dtd">
<svg version="1.1" id="Layer_1" xmlns="http://www.w3.org/2000/svg" xmlns:xlink="http://www.w3.org/1999/xlink" x="0px" y="0px"
	 width="750px" height="750px" viewBox="-69 21 750 750" enable-background="new -69 21 750 750" xml:space="preserve">
<g>
	<path d="M306,21C99,21-69,189-69,396S99,771,306,771s375-168,375-375S513,21,306,21L306,21L306,21z M656,396c0,47-9,93-28,136
		c-17,42-42,79-75,112c-32,32-69,57-111,75c-43,18-89,27-136,27s-93-9-136-27c-42-18-79-43-112-75c-32-33-57-70-75-112
		c-18-43-27-89-27-136s9-93,27-136c18-42,43-79,75-111c33-33,70-58,112-75c43-19,89-28,136-28s93,9,136,28c42,17,79,42,111,75
		c33,32,58,69,75,111C647,303,656,349,656,396L656,396L656,396z M324,240h-73c-16,0-30,14-30,31v54c0,16,14,30,30,30h73
		c17,0,31-14,31-30v-54C355,254,341,240,324,240L324,240L324,240z M330,325c0,3-3,5-6,5h-73c-3,0-5-2-5-5v-54c0-3,2-6,5-6h73
		c3,0,6,3,6,6V325L330,325z M473,411c-5,0-9-4-9-10v-32v-87c0-19-16-35-35-35h-20c-3-34-32-61-67-61H233c-37,0-67,30-67,67v321h-19
		c-7,0-13,6-13,13s6,12,13,12h282c7,0,12-5,12-12s-5-13-12-13h-20v-29h64c19,0,35-16,35-35v-64C508,426,492,411,473,411L473,411
		L473,411z M191,574V253c0-23,19-42,42-42h109c23,0,42,19,42,42v7v314H191L191,574z M483,510c0,6-4,10-10,10h-64V272h20
		c5,0,10,5,10,10v88v31c0,19,15,35,34,35c6,0,10,4,10,10V510L483,510z"/>
</g>
</svg>
