<?xml version="1.0" encoding="utf-8"?>
<!-- Generator: Adobe Illustrator 16.0.0, SVG Export Plug-In . SVG Version: 6.00 Build 0)  -->
<!DOCTYPE svg PUBLIC "-//W3C//DTD SVG 1.1//EN" "http://www.w3.org/Graphics/SVG/1.1/DTD/svg11.dtd">
<svg version="1.1" id="Layer_1" xmlns="http://www.w3.org/2000/svg" xmlns:xlink="http://www.w3.org/1999/xlink" x="0px" y="0px"
	 width="731.325px" height="750px" viewBox="-60 21 731.325 750" enable-background="new -60 21 731.325 750" xml:space="preserve">
<g>
	<path d="M562.2,614l-102-21c-6-2-12,0-17,3c-11,7-22,14-33,19c-5,3-10,7-11,13l-33,100H245.201l-33-100c-2-6-6-10-11-13
		c-11-5-23-12-33-19c-5-3-11-5-17-3l-102,21l-61-105l70-78c4-4,6-9,6-14v-42c0-5-2-10-6-14l-70-78l61-105l102,21c6,1,12,0,17-3
		c11-7,22-14,33-19c5-3,9-7,11-13l33-100H366.2l33,100c1,6,6,10,11,13c11,5,22,12,33,19c5,3,11,4,17,3l102-21l61,105l-70,78
		c-4,4-6,9-6,14v42c0,5,2,10,6,14l70,78L562.2,614L562.2,614z M590.2,409v-26l75-83c7-7,8-17,3-25l-76-132c-5-9-14-13-23-11l-109,23
		c-8-4-15-9-23-13l-35-106c-3-9-11-15-20-15H229.201c-9,0-17,6-20,15l-35,106c-8,4-15,9-23,13l-109-23c-9-2-18,2-23,10l-76,133
		c-5,8-4,18,2,25l76,83v26l-76,83c-6,7-7,17-2,25l76,132c5,9,14,13,23,11l109-23c8,4,15,9,23,13l35,106c3,9,11,15,20,15H382.2
		c9,0,17-6,20-15l35-106c8-4,15-9,23-13l109,23c9,2,18-2,23-11l76-132c5-8,4-18-3-25L590.2,409L590.2,409z M305.2,529
		c-72.999,0-132.999-60-132.999-133c0-74,60-133,132.999-133c74,0,134,59,134,133S379.2,529,305.2,529L305.2,529L305.2,529z
		 M305.2,220c-96.999,0-175.999,79-175.999,176s79,176,175.999,176c98,0,177-79,177-176S403.2,220,305.2,220L305.2,220z"/>
</g>
</svg>
