<?xml version="1.0" encoding="utf-8"?>
<!-- Generator: Adobe Illustrator 16.0.0, SVG Export Plug-In . SVG Version: 6.00 Build 0)  -->
<!DOCTYPE svg PUBLIC "-//W3C//DTD SVG 1.1//EN" "http://www.w3.org/Graphics/SVG/1.1/DTD/svg11.dtd">
<svg version="1.1" id="Layer_1" xmlns="http://www.w3.org/2000/svg" xmlns:xlink="http://www.w3.org/1999/xlink" x="0px" y="0px"
	 width="647px" height="750px" viewBox="-18 21 647 750" enable-background="new -18 21 647 750" xml:space="preserve">
<g>
	<path d="M527,305c0-41-14-80-39-112l98-99v51c0,12,9,22,21,22s22-10,22-22V56c0-10-4-18-10-25c-7-6-15-10-25-10h-89
		c-12,0-22,10-22,22c0,11,10,21,22,21h50l-98,98c-32-25-71-39-112-39c-49,0-95,19-129,54c-8,8-16,17-23,27c-9-2-19-2-29-2
		c-49,0-94,18-129,53c-34,34-53,80-53,128c0,93,70,170,161,181v97H91c-12,0-21,9-21,21s9,22,21,22h52v46c0,11,9,21,21,21
		s22-10,22-21v-46h51c12,0,21-10,21-22s-9-21-21-21h-51v-97c40-5,77-23,107-52c8-8,16-18,22-27c10,1,20,2,30,2c48,0,94-19,128-53
		C508,399,527,354,527,305L527,305L527,305z M262,482c-26,26-61,40-98,40c-77,0-139-62-139-139c0-37,15-72,41-98s61-40,98-40h9
		c-7,19-10,39-10,60c0,49,19,94,53,129c16,16,35,29,55,38C268,475,265,478,262,482L262,482L262,482z M293,434c-17-7-33-17-47-31
		c-26-26-40-61-40-98c0-18,3-35,9-51c18,7,34,18,47,31c26,26,41,61,41,98C303,401,300,418,293,434L293,434L293,434z M345,444h-9
		c6-19,10-40,10-61c0-48-19-94-53-128c-17-16-35-29-56-38c3-4,6-7,9-10c27-26,62-41,99-41s72,15,98,41s41,61,41,98s-15,72-41,98
		C417,430,382,444,345,444L345,444z"/>
</g>
</svg>
