<?xml version="1.0" encoding="utf-8"?>
<!-- Generator: Adobe Illustrator 16.0.0, SVG Export Plug-In . SVG Version: 6.00 Build 0)  -->
<!DOCTYPE svg PUBLIC "-//W3C//DTD SVG 1.1//EN" "http://www.w3.org/Graphics/SVG/1.1/DTD/svg11.dtd">
<svg version="1.1" id="Layer_1" xmlns="http://www.w3.org/2000/svg" xmlns:xlink="http://www.w3.org/1999/xlink" x="0px" y="0px"
	 width="685.086px" height="750px" viewBox="31.457 113.5 685.086 750" enable-background="new 31.457 113.5 685.086 750"
	 xml:space="preserve">
<g>
	<path d="M694.573,820.557H324.067V168.427l213.715,212.716c3.995,4.994,8.988,6.991,14.98,6.991c4.993,0,10.985-1.997,14.98-6.991
		c7.989-7.988,7.989-21.971,0-29.959L349.033,132.474c-11.984-11.984-27.963-18.975-45.938-18.975h-0.999
		c-16.977,0-33.955,6.991-45.938,18.975L37.449,351.183c-7.989,7.988-7.989,21.971,0,29.959c8.988,8.988,21.971,8.988,30.958,0
		l212.717-212.716v674.102c0,11.983,9.986,20.972,21.971,20.972h391.478c11.984,0,21.971-8.988,21.971-20.972
		C716.543,830.544,706.557,820.557,694.573,820.557L694.573,820.557z"/>
</g>
</svg>
