<?xml version="1.0" encoding="utf-8"?>
<!-- Generator: Adobe Illustrator 16.0.0, SVG Export Plug-In . SVG Version: 6.00 Build 0)  -->
<!DOCTYPE svg PUBLIC "-//W3C//DTD SVG 1.1//EN" "http://www.w3.org/Graphics/SVG/1.1/DTD/svg11.dtd">
<svg version="1.1" id="Layer_1" xmlns="http://www.w3.org/2000/svg" xmlns:xlink="http://www.w3.org/1999/xlink" x="0px" y="0px"
	 width="506px" height="750px" viewBox="53 21 506 750" enable-background="new 53 21 506 750" xml:space="preserve">
<g>
	<path d="M306,391c-65,0-118-52-118-117c0-66,53-118,118-118s118,52,118,118C424,339,371,391,306,391L306,391L306,391z M306,113
		c-89,0-161,72-161,161c0,88,72,160,161,160s161-72,161-160C467,185,395,113,306,113L306,113L306,113z M477,394c-24,35-58,61-98,76
		c-23,8-37,22-42,40c-8,30,15,59,24,69c0,1,1,1,1,2c1,1,2,3,3,5c6,10,25,40,25,58c0,46-38,84-84,84s-84-38-84-84c0-4,0-18,25-58
		c1-2,2-4,3-5c0-1,1-1,1-2c9-10,32-39,24-69c-5-18-19-32-42-40c-40-15-74-41-98-76c-25-35-39-77-39-120c0-116,94-210,210-210
		s210,94,210,210C516,317,502,359,477,394L477,394L477,394z M400,561v-1V561L400,561z M306,21c-67,0-131,26-179,74
		c-47,48-74,111-74,179c0,52,16,102,47,145c29,41,70,73,117,91c9,3,15,7,16,11s-1,13-15,31c-3,3-4,5-6,8c0,1-1,2-2,3
		c-14,24-31,54-31,81c0,70,57,127,127,127s127-57,127-127c0-27-17-57-31-81c-1-1-2-2-2-3c-2-3-3-5-6-8c-14-18-16-27-15-31s7-8,16-11
		c47-18,88-50,117-91c31-43,47-93,47-145c0-68-27-131-74-179C437,47,373,21,306,21L306,21L306,21z M309,621c-13,0-24,11-24,24
		c0,14,11,24,24,24s24-10,24-24C333,632,322,621,309,621L309,621z"/>
</g>
</svg>
