<?xml version="1.0" encoding="utf-8"?>
<!-- Generator: Adobe Illustrator 16.0.0, SVG Export Plug-In . SVG Version: 6.00 Build 0)  -->
<!DOCTYPE svg PUBLIC "-//W3C//DTD SVG 1.1//EN" "http://www.w3.org/Graphics/SVG/1.1/DTD/svg11.dtd">
<svg version="1.1" id="Layer_1" xmlns="http://www.w3.org/2000/svg" xmlns:xlink="http://www.w3.org/1999/xlink" x="0px" y="0px"
	 width="612.8px" height="750px" viewBox="0 0 612.8 750" enable-background="new 0 0 612.8 750" xml:space="preserve">
<g>
	<path d="M504.4,331.6c-9.9-3.9-19.7-5.9-28.6-5.9c-33.6,0-49.3,25.7-63.2,48.4c-14.8,22.7-30.6,47.4-66.1,59.2
		c-8.9,2-16.8,3.9-24.7,3.9c-22.7,0-39.5-12.8-56.3-26.6c-15.8-11.8-31.6-24.7-52.3-24.7c-11.8,0-23.7,3.9-35.5,12.8
		c-19.7,15.8-21.7,46.4-6.9,91.8c8.9,24.7,21.7,51.3,36.5,78c-1-2-3-4.9-4.9-7.9c-15.8-20.7-42.4-45.4-73-65.1
		c-18.8-11.8-55.3-33.6-84.9-33.6c-23.7,0-34.5,12.8-38.5,19.7c-5.9,9.9-10.9,26.6,2,48.4c17.8,32.6,61.2,61.2,78.9,72
		c52.3,33.6,82.9,36.5,93.8,36.5c18.8,0,32.6-8.9,37.5-23.7c3-11.8,1-25.7-6.9-40.5c16.8,28.6,36.5,56.3,57.2,80.9
		c66.1,79,116.4,95.7,147,95.7c7.9,0,15.8-1,22.7-3c36.5-10.9,68.1-46.4,89.8-103.6c17.8-45.4,28.6-103.6,29.6-158.9
		c1-35.5-2-68.1-8.9-93.8C540,359.2,525.2,338.5,504.4,331.6L504.4,331.6L504.4,331.6z M96.9,557.6c-34.5-24.7-49.3-43.4-52.3-52.3
		c13.8,0,45.4,12.8,80.9,40.5c25.7,19.7,41.4,38.5,47.4,48.4C156.1,591.1,127.5,578.3,96.9,557.6L96.9,557.6L96.9,557.6z
		 M514.3,484.6c-1,50.3-10.9,102.6-26.6,144.1c-16.8,43.4-38.5,71.1-61.2,78c-3.9,1-6.9,1-10.9,1c-43.4,0-113.5-65.1-166.8-155.9
		c-17.8-28.6-30.6-57.2-38.5-79.9c-7.9-26.6-5.9-37.5-4.9-39.5c2-2,4.9-3,7.9-3c5.9,0,15.8,7.9,25.7,15.8
		c18.8,14.8,44.4,35.5,82.9,35.5c11.8,0,24.7-2,37.5-5.9c51.3-16.8,73-52.3,89.8-78c13.8-20.7,18.8-27.6,26.6-27.6
		c3.9,0,8.9,1,13.8,3c4.9,2,11.8,10.9,17.8,30.6C512.3,424.4,515.3,453,514.3,484.6L514.3,484.6L514.3,484.6z M103.8,324.7
		c27.6,60.2,49.3,67.1,62.2,67.1c6.9,0,13.8-2,19.7-5.9c15.8-12.8,21.7-37.5,17.8-78.9c-3-30.6-10.9-67.1-22.7-100.7
		c-21.7-64.1-47.4-96.7-77-96.7c-3.9,0-8.9,1-12.8,2c-19.7,7.9-25.7,28.6-27.6,44.4c-1,15.8,0,34.5,3.9,57.2
		C74.2,248.7,88,291.1,103.8,324.7L103.8,324.7L103.8,324.7z M107.7,155.9c6.9,7.9,20.7,29.6,35.5,75c7.9,26.6,14.8,55.3,16.8,78.9
		c1,12.8,1,21.7,1,28.6c-4.9-6.9-10.9-16.8-17.8-32.6c-11.8-25.7-22.7-56.3-29.6-84.9C105.8,185.5,105.8,165.8,107.7,155.9
		L107.7,155.9L107.7,155.9z M234,304c5.9,18.8,12.8,34.5,18.8,46.4c3.9,5.9,15.8,26.6,36.5,26.6c5.9,0,11.8-2,17.8-5.9
		c11.8-8.9,17.8-26.6,20.7-54.3c2-19.7,2-46.4,0-75C322.9,182.6,311,120.4,296.2,77C286.3,48.4,270.6,9.9,240,9.9c-3,0-5.9,1-8.9,2
		c-26.6,7.9-31.6,41.4-32.6,66.1c-1,32.6,3,71.1,6.9,97.7C212.3,221.1,222.2,267.4,234,304L234,304L234,304z M243.9,63.2
		c3,4.9,6.9,13.8,10.9,25.7c6.9,21.7,13.8,49.3,19.7,79.9c6.9,37.5,10.9,78,10.9,109.5c1,15.8,0,27.6-1,36.5
		c-3-5.9-5.9-14.8-8.9-25.7c-8.9-26.6-16.8-59.2-22.7-93.7c-6.9-35.5-9.9-69.1-10.9-95.7C241,81.9,242.9,70.1,243.9,63.2L243.9,63.2
		L243.9,63.2z M367.3,293.1c2,6.9,5.9,27.6,22.7,32.6c5.9,2,11.8,2,17.8,0c11.8-4.9,21.7-17.8,31.6-40.5
		c6.9-16.8,13.8-38.5,19.7-64.1c10.9-50.3,17.8-106.6,16.8-147c-1-26.6-4.9-63.2-29.6-71.1c-3-1-5.9-2-8.9-2
		c-24.7,0-37.5,27.6-44.4,47.4c-9.9,27.6-16.8,61.2-20.7,84.9c-5.9,40.5-8.9,82.9-8.9,115.5C363.3,267.4,365.3,282.3,367.3,293.1
		L367.3,293.1L367.3,293.1z M407.7,161.9c3.9-30.6,8.9-60.2,15.8-82.9c3.9-15.8,7.9-24.7,10.9-30.6c1,4.9,2,12.8,3,24.7
		c0,19.7-1,45.4-4.9,73c-3.9,33.6-10.9,68.1-18.8,95.7c-3.9,12.8-7.9,22.7-10.9,30.6c0-6.9-1-14.8-1-24.7
		C401.8,223,403.8,192.4,407.7,161.9L407.7,161.9L407.7,161.9z M610,142.1c-5.9-24.7-21.7-32.6-31.6-34.5c-3-1-6.9-2-10.9-2
		c-24.7,0-46.4,21.7-64.1,62.2c-12.8,30.6-21.7,67.1-22.7,96.7c-2,52.3,25.7,60.2,36.5,61.2h3c14.8,0,37.5-9.9,61.2-52.3
		c14.8-26.6,25.7-59.2,29.6-86.8C614,168.8,613,154,610,142.1L610,142.1L610,142.1z M562.7,205.3c-5.9,19.7-13.8,39.5-23.7,54.3
		c-5.9,9.9-10.9,15.8-14.8,18.8c0-5.9-1-14.8,1-28.6c3-18.8,8.9-41.4,15.8-60.2c11.8-27.6,21.7-37.5,25.7-39.5c1,2,3,6.9,3,15.8
		C569.6,176.7,566.6,190.5,562.7,205.3L562.7,205.3z"/>
</g>
</svg>
