<?xml version="1.0" encoding="utf-8"?>
<!-- Generator: Adobe Illustrator 16.0.0, SVG Export Plug-In . SVG Version: 6.00 Build 0)  -->
<!DOCTYPE svg PUBLIC "-//W3C//DTD SVG 1.1//EN" "http://www.w3.org/Graphics/SVG/1.1/DTD/svg11.dtd">
<svg version="1.1" id="Layer_1" xmlns="http://www.w3.org/2000/svg" xmlns:xlink="http://www.w3.org/1999/xlink" x="0px" y="0px"
	 width="587.532px" height="750px" viewBox="12 21 587.532 750" enable-background="new 12 21 587.532 750" xml:space="preserve">
<g>
	<path d="M64.475,621l65-101c10-16,29-26,49-26c11,0,22,3,30,8l21,14c4,2,8,3,12,3c7,0,20-3,43-26c17-17,36-41,55-70l1-1
		c18-30,32-58,40-81c11-31,7-43,4-50c-2-3-5-6-8-8l-20-12c-26-17-34-53-17-80l65-101c10-16,29-26,49-26c11,0,22,3,30,9l21,13
		c3,2,5,4,8,6l1,1l3,3c17,19,28,40,35,63c6,25,7,51,2,82c-9,62-43,140-102,235c0,1,0,2-1,2v1l-13,21h-1c0,1-1,2-1,2
		c-53,79-101,136-147,173c-43,36-84,53-125,53c-16,0-31-3-47-7c-1-1-3-2-4-2c-3-1-7-3-10-5l-21-13c-13-9-22-21-25-36
		C53.475,649,56.475,634,64.475,621L64.475,621L64.475,621z M58.475,737l21,13c6,4,12,7,18,9c1,1,5,2,6,2v1c20,6,40,9,60,9
		c51,0,101-21,153-62c49-40,99-100,154-182c1-1,2-2,2-3l1-1l13-21h1c0-2,1-3,1-4c62-100,97-182,108-251c5-36,4-69-4-99s-23-57-44-81
		l-5-5c-1-1-2-1-2-2c-4-4-9-7-14-10l-20-14c-16-10-34-15-54-15c-35,0-68,18-86,46l-64,101c-30,47-16,109,30,139l10,6
		c-2,13-12,42-40,87c-29,43-51,65-61,73l-11-7c-15-10-34-15-53-15c-35,0-68,18-86,46l-64,101c-15,22-20,49-14,76
		C20.475,700,36.475,723,58.475,737L58.475,737z"/>
</g>
</svg>
