<?xml version="1.0" encoding="utf-8"?>
<!-- Generator: Adobe Illustrator 16.0.0, SVG Export Plug-In . SVG Version: 6.00 Build 0)  -->
<!DOCTYPE svg PUBLIC "-//W3C//DTD SVG 1.1//EN" "http://www.w3.org/Graphics/SVG/1.1/DTD/svg11.dtd">
<svg version="1.1" id="Layer_1" xmlns="http://www.w3.org/2000/svg" xmlns:xlink="http://www.w3.org/1999/xlink" x="0px" y="0px"
	 width="592.7px" height="750px" viewBox="-117.605 37.5 592.7 750" enable-background="new -117.605 37.5 592.7 750"
	 xml:space="preserve">
<g>
	<path d="M379.476,514.863c-3.995-8.988-11.984-13.979-20.972-13.979h-56.927c46.938-85.887,94.874-187.752,94.874-245.674
		c0-119.84-97.869-217.71-217.709-217.71S-38.966,135.37-38.966,255.21c0,57.922,47.938,159.787,93.875,245.674H-2.014
		c-7.989,0-15.979,4.991-19.974,13.979l-93.875,243.676c-2.996,6.99-1.997,13.98,1.997,19.975
		c3.995,5.994,10.985,8.986,17.977,8.986H453.38c6.988,0,13.979-2.994,17.977-8.986c3.994-5.992,4.993-12.982,1.997-19.975
		L379.476,514.863L379.476,514.863z M3.977,255.21c0-96.871,78.896-174.767,174.767-174.767
		c95.872,0,174.768,77.896,174.768,174.767c0,13.981-4.993,41.944-25.965,92.876c-13.981,35.952-33.956,77.896-59.921,125.834
		c-39.946,73.899-80.894,137.814-88.882,151.798c-7.989-12.982-48.935-76.897-89.88-152.796
		c-25.965-47.938-45.938-89.883-59.92-124.836C8.971,296.155,3.977,269.191,3.977,255.21L3.977,255.21L3.977,255.21z
		 M-64.931,744.557l77.896-200.732h59.92c1.998,0,3.995,0,5.992-0.999c34.953,61.918,63.915,107.856,64.913,107.856
		c0.999,1.997,11.983,18.975,34.953,18.975c20.972,0,31.957-15.979,33.955-17.977c0-0.998,29.96-46.938,65.911-108.854
		c1.997,0.999,3.994,0.999,5.991,0.999h59.921l77.896,200.732H-64.931L-64.931,744.557z M178.743,216.261
		c15.979,0,29.96-13.981,29.96-29.96c0-16.979-13.98-29.962-29.96-29.962c-16.978,0-29.959,12.983-29.959,29.962
		C148.784,202.28,161.767,216.261,178.743,216.261L178.743,216.261L178.743,216.261z M178.743,239.231
		c-11.983,0-21.971,9.987-21.971,21.971v216.711c0,10.985,9.986,20.974,21.971,20.974s20.972-9.986,20.972-20.974V261.201
		C199.715,249.219,190.728,239.231,178.743,239.231L178.743,239.231z"/>
</g>
</svg>
