<?xml version="1.0" encoding="utf-8"?>
<!-- Generator: Adobe Illustrator 18.1.1, SVG Export Plug-In . SVG Version: 6.00 Build 0)  -->
<svg version="1.1" id="all" xmlns="http://www.w3.org/2000/svg" xmlns:xlink="http://www.w3.org/1999/xlink" x="0px" y="0px"
	 viewBox="0 0 750 750" enable-background="new 0 0 750 750" xml:space="preserve">
<polygon points="406.6,343.4 406.6,0 341.8,0 341.8,343.4 0,343.4 0,408.2 341.8,408.2 341.8,750 406.6,750 406.6,408.2 750,408.2 
	750,343.4 "/>
</svg>
