<?xml version="1.0" encoding="utf-8"?>
<!-- Generator: Adobe Illustrator 16.0.0, SVG Export Plug-In . SVG Version: 6.00 Build 0)  -->
<!DOCTYPE svg PUBLIC "-//W3C//DTD SVG 1.1//EN" "http://www.w3.org/Graphics/SVG/1.1/DTD/svg11.dtd">
<svg version="1.1" id="Layer_1" xmlns="http://www.w3.org/2000/svg" xmlns:xlink="http://www.w3.org/1999/xlink" x="0px" y="0px"
	 width="750px" height="750px" viewBox="-69 21 750 750" enable-background="new -69 21 750 750" xml:space="preserve">
<g>
	<path d="M572,21h-72c-12,0-21,9-21,21s9,22,21,22h72c36,0,66,29,66,66v72c0,12,10,21,22,21s21-9,21-21v-72C681,70,632,21,572,21
		L572,21L572,21z M134,42c0-12-10-21-22-21H41C-20,21-69,70-69,130v72c0,12,10,21,22,21s21-9,21-21v-72c0-37,30-66,67-66h71
		C124,64,134,54,134,42L134,42L134,42z M112,728H41c-37,0-67-30-67-67v-72c0-11-9-21-21-21s-22,10-22,21v72c0,60,49,110,110,110h71
		c12,0,22-10,22-22S124,728,112,728L112,728L112,728z M660,568c-12,0-22,10-22,21v72c0,37-30,67-67,67h-71c-12,0-22,9-22,21
		s10,22,22,22h71c61,0,110-50,110-110v-72C681,578,672,568,660,568L660,568L660,568z M152,483h315c11,0,21-10,21-22
		c0-11-10-21-21-21H152c-12,0-22,10-22,21C130,473,140,483,152,483L152,483L152,483z M383,422h66c22,0,39-18,39-39v-66
		c0-22-17-39-39-39h-66c-21,0-39,17-39,39v66C344,404,362,422,383,422L383,422L383,422z M387,321h58v58h-58V321L387,321z M123,564
		h366c32,0,58-27,58-59V286c0-32-26-58-58-58H123c-32,0-58,26-58,58v219C65,537,91,564,123,564L123,564L123,564z M108,286
		c0-9,7-15,15-15h366c9,0,15,6,15,15v219c0,9-6,16-15,16H123c-8,0-15-7-15-16V286L108,286z"/>
</g>
</svg>
