<?xml version="1.0" encoding="utf-8"?>
<!-- Generator: Adobe Illustrator 16.0.0, SVG Export Plug-In . SVG Version: 6.00 Build 0)  -->
<!DOCTYPE svg PUBLIC "-//W3C//DTD SVG 1.1//EN" "http://www.w3.org/Graphics/SVG/1.1/DTD/svg11.dtd">
<svg version="1.1" id="Layer_1" xmlns="http://www.w3.org/2000/svg" xmlns:xlink="http://www.w3.org/1999/xlink" x="0px" y="0px"
	 width="729.057px" height="750px" viewBox="-60 20 729.057 750" enable-background="new -60 20 729.057 750" xml:space="preserve">
<g>
	<path d="M252.168,600.452c-71.809,0-139.627-27.926-190.492-78.79c-50.864-50.864-78.79-117.686-78.79-189.495
		c0-72.806,27.925-139.627,78.79-190.492c50.865-50.865,118.684-78.79,190.492-78.79c71.808,0,139.627,27.925,190.492,78.79
		c50.864,50.864,78.79,117.686,78.79,190.492c0,71.809-27.926,138.63-78.79,189.495S323.976,600.452,252.168,600.452
		L252.168,600.452L252.168,600.452z M663.073,733.098L481.556,551.582c-1.994-1.994-2.992-2.991-4.986-3.989
		c56.849-57.846,87.766-134.641,87.766-215.425c0-83.776-32.912-162.566-91.755-221.41C413.737,51.915,334.948,20,252.168,20
		c-83.776,0-161.569,31.915-220.412,90.758C-27.088,169.601-60,248.391-60,332.167c0,82.78,32.912,161.569,91.755,220.413
		c58.843,58.843,136.636,90.758,220.412,90.758c71.808,0,139.627-23.937,194.481-67.819c0.998,1.995,1.995,3.989,3.99,5.984
		l181.516,181.516c4.986,3.989,9.974,6.981,15.957,6.981c4.987,0,10.971-2.992,14.961-6.981
		C671.051,755.04,671.051,741.077,663.073,733.098L663.073,733.098L663.073,733.098z M397.78,187.553
		c-44.881-44.88-103.724-68.816-166.556-68.816c-11.968,0-21.942,8.976-21.942,20.944c0,11.968,9.974,21.942,21.942,21.942
		c51.861,0,99.733,19.947,136.636,55.851c35.904,36.901,55.851,84.774,55.851,136.635c0,11.968,9.974,21.942,21.941,21.942
		c11.969,0,20.944-9.974,20.944-21.942C466.596,291.276,442.659,232.433,397.78,187.553L397.78,187.553z"/>
</g>
</svg>
