<?xml version="1.0" encoding="utf-8"?>
<!-- Generator: Adobe Illustrator 16.0.0, SVG Export Plug-In . SVG Version: 6.00 Build 0)  -->
<!DOCTYPE svg PUBLIC "-//W3C//DTD SVG 1.1//EN" "http://www.w3.org/Graphics/SVG/1.1/DTD/svg11.dtd">
<svg version="1.1" id="Layer_1" xmlns="http://www.w3.org/2000/svg" xmlns:xlink="http://www.w3.org/1999/xlink" x="0px" y="0px"
	 width="1161px" height="750px" viewBox="-275 21 1161 750" enable-background="new -275 21 1161 750" xml:space="preserve">
<g>
	<path d="M561,21h-24c-26,0-48,21-48,48v8l-673,191c-7-17-24-30-44-30c-26,0-47,21-47,48v221c0,26,21,47,47,47c20,0,37-12,44-30
		l38,11v56c0,92,75,166,166,166c78,0,145-55,162-129l307,87v9c0,26,22,47,48,47h24c26,0,47-21,47-47V69C608,42,587,21,561,21L561,21
		L561,21z M-228,511c-2,0-4-2-4-4V286c0-3,2-5,4-5c3,0,5,2,5,5v9v202v2v8C-223,509-225,511-228,511L-228,511L-228,511z M170,580
		c-2-1-4-1-6-1c-4,0-8,2-12,4c-5,4-9,10-9,16c-4,65-58,115-123,115c-67,0-123-55-123-123v-72c0-10-6-18-15-21l-62-18V312l669-190
		v549L170,580L170,580z M565,724c0,2-2,4-4,4h-24c-3,0-5-2-5-4v-25V93V69c0-3,2-5,5-5h24c2,0,4,2,4,5V724L565,724z M103,561l-152-43
		c-7-2-14-1-19,3s-9,11-9,17v53c0,53,44,97,97,97c54,0,97-44,97-97c0-1,1-2,1-3c1-6,1-12-2-17S109,563,103,561L103,561L103,561z
		 M20,645c-29,0-54-24-54-54v-24l108,30C71,624,48,645,20,645L20,645L20,645z M693,159c-8-9-21-9-30-1c-9,9-9,22-1,31
		c54,56,84,130,84,207c0,78-30,151-84,207c-8,9-8,23,1,31c4,4,10,6,15,6c6,0,11-2,15-7c62-64,96-148,96-237S755,223,693,159L693,159
		L693,159z M727,76c-9,8-9,21-1,30c75,79,117,182,117,290c0,109-42,212-117,290c-8,9-8,22,1,31c4,4,9,6,15,6c5,0,11-3,15-7
		c83-87,129-200,129-320S840,163,757,76C749,68,735,67,727,76L727,76z"/>
</g>
</svg>
