<?xml version="1.0" encoding="utf-8"?>
<!-- Generator: Adobe Illustrator 16.0.0, SVG Export Plug-In . SVG Version: 6.00 Build 0)  -->
<!DOCTYPE svg PUBLIC "-//W3C//DTD SVG 1.1//EN" "http://www.w3.org/Graphics/SVG/1.1/DTD/svg11.dtd">
<svg version="1.1" id="Layer_1" xmlns="http://www.w3.org/2000/svg" xmlns:xlink="http://www.w3.org/1999/xlink" x="0px" y="0px"
	 width="750px" height="750px" viewBox="-69 21 750 750" enable-background="new -69 21 750 750" xml:space="preserve">
<g>
	<path d="M491,315c0,67-13,142-21,184c-40-30-116-79-144-93l161-161C489,268,491,292,491,315L491,315L491,315z M224,602
		c0,4,1,13,26,63l-6,8h-75l-7-102l68-69C227,537,224,575,224,602L224,602L224,602z M151,431h88v2l-82,81L151,431L151,431z M61,372
		c-8-10-12-28-12-55c0-59,17-72,66-72h159c14,0,63-10,196-110c3,15,7,34,10,56L283,389c-4-1-7-1-9-1H128h-13C88,388,71,383,61,372
		L61,372L61,372z M644,27L518,154c-15-86-13-78-33-78c-11,0-13,8-102,67c-87,58-107,59-109,59H115C40,202,6,236,6,317
		c0,80,34,112,102,114l9,123L-63,734c-4,5-6,10-6,16c0,11,9,21,21,21c6,0,12-2,16-6l154-154l6,85c1,11,10,20,21,20h104
		c7,0,12-3,16-8l23-25c3-4,5-9,5-14c0-15-29-65-30-69c0-41,7-105,12-147l15-15c14,6,183,115,178,115c3,3,8,4,12,4c11,0,19-6,21-16
		c2-5,29-122,29-226c0-37-4-75-8-109l24-23c5,31,13,84,13,132c0,75-19,164-19,165v4c0,11,8,22,21,22c10,0,19-7,21-17
		c1-4,20-94,20-174c0-75-17-157-19-169l88-88c4-4,6-10,6-15c0-12-10-22-22-22C654,21,648,23,644,27L644,27z"/>
</g>
</svg>
