<?xml version="1.0" encoding="utf-8"?>
<!-- Generator: Adobe Illustrator 16.0.0, SVG Export Plug-In . SVG Version: 6.00 Build 0)  -->
<!DOCTYPE svg PUBLIC "-//W3C//DTD SVG 1.1//EN" "http://www.w3.org/Graphics/SVG/1.1/DTD/svg11.dtd">
<svg version="1.1" id="Layer_1" xmlns="http://www.w3.org/2000/svg" xmlns:xlink="http://www.w3.org/1999/xlink" x="0px" y="0px"
	 width="890.086px" height="750px" viewBox="-139.999 21.001 890.086 750" enable-background="new -139.999 21.001 890.086 750"
	 xml:space="preserve">
<g>
	<path d="M540.253,28.589c-6.995-8.993-19.984-9.992-28.978-2.998L-75.259,488.224h-0.999l-55.956,44.965
		c-6.994,4.996-9.992,14.988-5.995,23.981l47.962,129.896c3.997,9.992,13.989,15.987,24.98,12.99l60.952-13.989l34.972-8.993
		l21.983,77.938c2.998,8.993,11.99,15.987,20.983,15.987h214.83c11.989,0,21.981-9.992,21.981-21.982V642.103l421.666-57.954
		c9.992-1,17.986-9.992,17.986-20.983c0-6.995-4.996-151.88-51.959-281.777S545.249,33.585,540.253,28.589L540.253,28.589
		L540.253,28.589z M-57.273,654.094l-35.972-96.923l19.984-15.988l35.972,107.915L-57.273,654.094L-57.273,654.094z
		 M285.455,602.135c-9.992,1.998-17.985,10.991-17.985,21.982v103.918H89.611l-22.982-81.936
		c-2.998-10.991-14.988-17.985-25.979-14.987l-35.971,7.993l-41.967-125.9L521.268,72.553
		c29.977,34.973,101.92,127.899,136.892,223.823c34.973,95.924,44.965,204.838,47.962,248.803L285.455,602.135L285.455,602.135z
		 M235.495,595.14c-4.996-3.997-10.991-5.995-16.986-4.996l-107.915,15.987c-5.995,0.999-11.991,4.996-14.988,9.992
		c-3.997,5.995-4.996,11.99-2.998,17.985l19.984,61.951c2.998,8.993,10.991,14.988,19.984,14.988h1l88.929-3.997
		c11.991-0.999,20.983-9.992,20.983-21.982l-0.999-73.941C242.49,605.133,240.491,599.136,235.495,595.14L235.495,595.14
		L235.495,595.14z M148.564,667.083L141.57,645.1l58.953-7.993v27.978L148.564,667.083L148.564,667.083z"/>
</g>
</svg>
