<?xml version="1.0" encoding="utf-8"?>
<!-- Generator: Adobe Illustrator 16.0.0, SVG Export Plug-In . SVG Version: 6.00 Build 0)  -->
<!DOCTYPE svg PUBLIC "-//W3C//DTD SVG 1.1//EN" "http://www.w3.org/Graphics/SVG/1.1/DTD/svg11.dtd">
<svg version="1.1" id="Layer_1" xmlns="http://www.w3.org/2000/svg" xmlns:xlink="http://www.w3.org/1999/xlink" x="0px" y="0px"
	 width="1063px" height="750px" viewBox="-226 21 1063 750" enable-background="new -226 21 1063 750" xml:space="preserve">
<g>
	<path d="M659,21H-48c-98,0-178,80-178,178v394c0,98,80,178,191,178h708c84,0,164-80,164-178V199C837,101,757,21,659,21L659,21
		L659,21z M284,507c-52-11-91-56-91-111s39-100,91-111V507L284,507z M327,285c52,11,91,56,91,111s-39,100-91,111V285L327,285z
		 M-183,250h88v292h-88V250L-183,250z M-143,688c-26-25-40-58-40-95v-8h110c12,0,21-9,21-21V228c0-11-9-21-21-21h-110v-8
		c0-36,14-70,39-96c26-25,60-39,96-39h332v178c-76,10-134,76-134,154c0,79,58,144,134,154v178H-35C-77,728-115,714-143,688L-143,688
		L-143,688z M794,542h-88V250h88V542L794,542z M794,207H684c-12,0-21,10-21,21v336c0,12,9,21,21,21h110v8c0,18-4,36-10,53
		c-7,16-17,31-29,43c-23,25-53,39-82,39H327V550c76-10,134-75,134-154c0-78-58-144-134-154V64h332c36,0,70,14,96,39
		c25,26,39,60,39,96V207L794,207z"/>
</g>
</svg>
