<?xml version="1.0" encoding="utf-8"?>
<!-- Generator: Adobe Illustrator 16.0.0, SVG Export Plug-In . SVG Version: 6.00 Build 0)  -->
<!DOCTYPE svg PUBLIC "-//W3C//DTD SVG 1.1//EN" "http://www.w3.org/Graphics/SVG/1.1/DTD/svg11.dtd">
<svg version="1.1" id="Layer_1" xmlns="http://www.w3.org/2000/svg" xmlns:xlink="http://www.w3.org/1999/xlink" x="0px" y="0px"
	 width="737.871px" height="750px" viewBox="-62.808 22.195 737.871 750" enable-background="new -62.808 22.195 737.871 750"
	 xml:space="preserve">
<g>
	<path d="M549.129,728.219H226.297l-89.953-24.987V408.385c13.993-12.993,46.976-41.979,79.958-75.961
		c24.987-26.985,45.976-51.973,60.968-72.962c20.989-29.983,30.984-53.972,30.984-74.961V68.561
		c4.997-2.999,16.99-3.998,27.984-1.999c6.996,1,9.995,2.999,9.995,3.998c0.999,2.999,2.998,6.996,4.997,10.994
		c11.994,26.985,33.982,73.961,33.982,120.937c0,51.973-37.98,117.939-37.98,118.938c-3.998,5.997-3.998,14.991,0,20.988
		c3.998,6.997,10.994,10.995,18.99,10.995h234.878c16.991,0,30.984,13.993,30.984,30.984s-13.993,29.983-30.984,29.983H421.196
		c-11.994,0-21.989,9.996-21.989,21.988c0,11.994,9.995,20.989,21.989,20.989h159.917c16.991,0,30.983,13.992,30.983,30.983
		s-13.992,30.983-30.983,30.983h-173.91c-11.992,0-21.987,9.995-21.987,20.989c0,11.993,9.995,21.988,21.987,21.988h158.917
		c16.991,0,30.983,13.993,30.983,30.983c0,16.991-13.992,29.984-30.983,29.984H393.21c-11.994,0-20.989,9.994-20.989,21.988
		s8.995,20.989,20.989,20.989h155.919c16.99,0,30.982,13.991,30.982,30.982S566.119,728.219,549.129,728.219L549.129,728.219
		L549.129,728.219z M93.366,729.219H5.411l-23.987-341.822H93.366v10.994v321.833V729.219L93.366,729.219z M655.073,488.344
		c0-15.991-4.997-29.984-13.992-41.979c19.989-13.993,33.982-35.981,33.982-61.968c0-40.979-32.983-73.962-73.962-73.962H400.205
		c12.993-27.985,27.985-69.963,27.985-107.944c0-56.97-23.987-107.944-37.979-138.928c-1.999-3.998-2.998-6.996-4.997-9.995
		c-11.994-27.985-48.976-35.981-79.958-28.985c-24.987,4.997-39.979,18.99-39.979,36.98v122.936
		c0,10.995-7.996,41.979-79.958,117.939c-18.989,18.99-37.979,36.98-52.973,50.974c-3.998-4.998-9.995-8.996-17.991-8.996H-41.564
		c-5.997,0-11.994,2.999-15.992,6.997s-5.997,9.995-4.997,15.992l25.986,384.8c1,10.994,10.994,19.989,21.989,19.989h128.933
		c11.994,0,21.989-9.994,21.989-21.988v-1.999l80.958,21.988c1.999,1,3.998,1,5.997,1H549.13c40.979,0,73.961-32.982,73.961-73.962
		c0-15.991-5.996-31.983-14.992-43.977c18.99-12.993,31.982-34.982,31.982-59.97c0-16.99-5.997-32.982-15.99-44.977
		C643.079,534.319,655.073,513.33,655.073,488.344L655.073,488.344z"/>
</g>
</svg>
