<?xml version="1.0" encoding="utf-8"?>
<!-- Generator: Adobe Illustrator 16.0.0, SVG Export Plug-In . SVG Version: 6.00 Build 0)  -->
<!DOCTYPE svg PUBLIC "-//W3C//DTD SVG 1.1//EN" "http://www.w3.org/Graphics/SVG/1.1/DTD/svg11.dtd">
<svg version="1.1" id="Layer_1" xmlns="http://www.w3.org/2000/svg" xmlns:xlink="http://www.w3.org/1999/xlink" x="0px" y="0px"
	 width="750px" height="750px" viewBox="-69 21 750 750" enable-background="new -69 21 750 750" xml:space="preserve">
<g>
	<path d="M306,771c207,0,375-168,375-375S513,21,306,21S-69,189-69,396S99,771,306,771L306,771L306,771z M-44,396c0-47,10-93,28-136
		c17-42,43-79,75-112c32-32,69-57,111-75c43-18,89-27,136-27c48,0,93,9,137,27c41,18,79,43,111,75c32,33,57,70,75,112
		c18,43,27,89,27,136s-9,93-27,136c-18,42-43,79-75,111c-32,33-70,58-111,75c-44,19-89,28-137,28c-47,0-93-9-136-28
		c-42-17-79-42-111-75c-32-32-58-69-75-111C-34,489-44,443-44,396L-44,396L-44,396z M242,479h7l31,5h1c1,0,2,0,3-1s2-2,2-4v-9
		c0-1-1-3-2-4l-22-11v-38l78,11c3,0,5-2,5-5c0-1,0-1-1-2l-5-18c-1-1-2-3-4-3l-72-20v-33c0-21-12-28-15-30h-1h-1h-3c-3,2-14,9-14,30
		v33l-73,20c-1,0-2,2-3,3l-6,19c0,1,0,3,1,4s2,2,3,2h1l78-11v38l-22,11c-1,1-2,3-2,4v9c0,2,0,3,2,4c0,1,1,1,2,1h2L242,479L242,479z
		 M137,563h24c4,13,16,22,30,23h7c5,9,13,15,23,17l212,49c2,1,5,1,7,1c16,0,30-11,34-26v-1l55-238c0-3,0-5-1-8l-5-12l10-9
		c2-2,3-4,4-7l12-53c2-9,0-18-4-25c-5-8-13-14-22-16l-60-13l1-14c1-18-13-35-32-36l-43-2c0-19-16-34-34-34H137c-19,0-34,15-34,34v54
		c0,3,1,5,2,7l8,12l-8,11c-1,2-2,4-2,7v245C103,547,118,563,137,563L137,563L137,563z M172,538h-35c-5,0-9-4-9-9V287l6-9h1
		c3,0,5-1,7-2c2,1,5,2,8,2h15c2,0,5-1,7-2c2,1,5,2,7,2h15c3,0,6-1,8-2c2,1,4,2,7,2h15c3,0,5-1,7-2c2,1,5,2,8,2h14c3,0,6-1,8-2
		c2,1,4,2,7,2h15c3,0,5-1,7-2c2,1,5,2,8,2h14c3,0,6-1,8-2c2,1,4,2,7,2h15c3,0,5-1,7-2c3,1,5,2,8,2h1l6,9v241v1c0,5-4,9-9,9H211H172
		L172,538z M523,287c2,2,2,4,2,7h-1l-11,49l-13,12c-4,4-5,9-3,14l6,17l-53,234l-1,1c-1,4-4,7-9,7h-2l-160-37l130,7c1,1,2,1,2,1
		c19,0,34-15,35-33l14-244c0-3-1-5-2-7l-7-12l8-11c2-2,3-4,3-6l1-16l56,13C520,283,522,285,523,287L523,287L523,287z M439,230l-1,24
		l-2,26l-11,15c-3,4-3,9-1,14l10,15l-14,241c-1,5-5,9-10,9l-185-11h130c18,0,34-15,34-34V284c0-3-1-5-2-7l-8-11l8-12c1-2,2-4,2-7
		v-10v-19l41,2C435,220,439,225,439,230L439,230L439,230z M128,193c0-5,4-9,9-9h218c5,0,9,4,9,9v12v32v7l-6,9h-1c-3,0-5,1-8,3
		c-2-2-4-3-7-3h-15c-3,0-5,1-7,2c-2-1-5-2-8-2h-14c-3,0-6,1-8,2c-2-1-4-2-7-2h-15c-3,0-5,1-7,2c-2-1-5-2-8-2h-14c-3,0-6,1-8,2
		c-2-1-4-2-7-2h-15c-3,0-5,1-7,2c-2-1-5-2-8-2h-15c-2,0-5,1-7,2c-2-1-5-2-7-2h-15c-3,0-6,1-8,3c-2-2-4-3-7-3h-1l-6-9V193L128,193z"
		/>
</g>
</svg>
