<?xml version="1.0" encoding="utf-8"?>
<!-- Generator: Adobe Illustrator 16.0.0, SVG Export Plug-In . SVG Version: 6.00 Build 0)  -->
<!DOCTYPE svg PUBLIC "-//W3C//DTD SVG 1.1//EN" "http://www.w3.org/Graphics/SVG/1.1/DTD/svg11.dtd">
<svg version="1.1" id="Layer_1" xmlns="http://www.w3.org/2000/svg" xmlns:xlink="http://www.w3.org/1999/xlink" x="0px" y="0px"
	 width="729px" height="750px" viewBox="-59 21 729 750" enable-background="new -59 21 729 750" xml:space="preserve">
<g>
	<path d="M-38,219H8v430c0,67,55,122,122,122h351c67,0,121-55,121-122V219h47c12,0,21-10,21-22c0-11-9-21-21-21h-13v-21
		c0-74-60-134-134-134H109C35,21-25,81-25,155v21h-13c-12,0-21,10-21,21C-59,209-50,219-38,219L-38,219L-38,219z M559,649
		c0,44-35,79-78,79H130c-43,0-79-35-79-79V219h508V649L559,649z M18,155c0-50,40-91,91-91h393c50,0,91,41,91,91v21H18V155L18,155z
		 M167,670c12,0,22-10,22-22V270c0-12-10-22-22-22c-11,0-21,10-21,22v378C146,660,156,670,167,670L167,670L167,670z M305,670
		c12,0,22-10,22-22V270c0-12-10-22-22-22c-11,0-21,10-21,22v378C284,660,294,670,305,670L305,670L305,670z M443,670
		c12,0,22-10,22-22V270c0-12-10-22-22-22c-11,0-21,10-21,22v378C422,660,432,670,443,670L443,670z"/>
</g>
</svg>
