<?xml version="1.0" encoding="utf-8"?>
<!-- Generator: Adobe Illustrator 16.0.0, SVG Export Plug-In . SVG Version: 6.00 Build 0)  -->
<!DOCTYPE svg PUBLIC "-//W3C//DTD SVG 1.1//EN" "http://www.w3.org/Graphics/SVG/1.1/DTD/svg11.dtd">
<svg version="1.1" id="Layer_1" xmlns="http://www.w3.org/2000/svg" xmlns:xlink="http://www.w3.org/1999/xlink" x="0px" y="0px"
	 width="612px" height="750px" viewBox="25 29 612 750" enable-background="new 25 29 612 750" xml:space="preserve">
<g>
	<path d="M554,675c-21,17-47,31-78,42c-41,13-89,19-145,19s-104-6-145-19c-31-11-57-25-78-42c-30-27-38-52-40-59c1-47,18-105,45-152
		c24-39,65-90,132-108c8-2,14-9,15-17c2-8-2-16-8-21c-17-12-32-29-41-47c-10-20-16-41-16-63c0-75,61-136,136-136s136,61,136,136
		c0,22-6,43-16,63c-10,18-24,35-41,47c-7,5-10,13-8,21c1,8,7,15,15,17c67,18,108,69,132,108c27,47,44,105,45,152
		C592,623,584,648,554,675L554,675L554,675z M586,443c-23-40-62-89-122-116c10-11,18-23,25-36c14-26,21-54,21-83
		c0-98-81-179-179-179s-179,81-179,179c0,29,7,57,21,83c7,13,15,25,25,36c-60,27-99,76-122,116c-32,54-51,120-51,176c0,1,0,2,1,3
		c0,5,8,43,51,82c24,22,56,40,93,52c45,16,99,23,161,23s116-7,161-23c37-12,69-30,93-52c43-39,51-77,51-82c1-1,1-2,1-3
		C637,563,618,497,586,443L586,443z"/>
</g>
</svg>
