<?xml version="1.0" encoding="utf-8"?>
<!-- Generator: Adobe Illustrator 16.0.0, SVG Export Plug-In . SVG Version: 6.00 Build 0)  -->
<!DOCTYPE svg PUBLIC "-//W3C//DTD SVG 1.1//EN" "http://www.w3.org/Graphics/SVG/1.1/DTD/svg11.dtd">
<svg version="1.1" id="Layer_1" xmlns="http://www.w3.org/2000/svg" xmlns:xlink="http://www.w3.org/1999/xlink" x="0px" y="0px"
	 width="715.141px" height="750px" viewBox="-36.57 28.5 715.141 750" enable-background="new -36.57 28.5 715.141 750"
	 xml:space="preserve">
<g>
	<path d="M395.701,569.338c8.965-13.944,13.944-30.877,13.944-46.813c0-48.807-39.842-88.646-88.646-88.646
		c-48.805,0-88.646,39.839-88.646,88.646c0,15.936,4.979,32.868,13.944,46.813c-17.928,9.959-32.868,25.895-44.821,46.813
		c-14.94,24.9-23.903,55.777-23.903,81.672c0,0.997,0.996,1.991,0.996,2.988c0,3.985,4.979,22.909,25.896,41.833
		C230.363,766.547,269.207,778.5,321,778.5c51.792,0,90.637-11.953,116.534-35.856c20.915-18.924,24.9-37.848,25.897-41.833v-2.988
		c0-25.895-8.965-56.771-22.909-81.672C428.57,595.232,413.631,579.297,395.701,569.338L395.701,569.338L395.701,569.338z
		 M408.649,710.769c-11.95,11.953-36.851,24.9-87.648,24.9c-80.678,0-97.61-32.868-99.602-40.836
		c0-17.927,6.972-39.839,16.933-56.771c8.963-14.941,24.9-34.862,48.804-40.836c7.969-1.994,13.944-8.965,15.937-16.933
		c0.996-7.968-1.993-15.938-8.965-20.918c-11.952-8.965-18.924-22.909-18.924-36.851c0-25.897,20.917-45.818,45.817-45.818
		s45.815,19.921,45.815,45.818c0,13.941-6.971,27.886-18.924,36.851c-6.971,4.979-9.959,12.95-8.962,20.918
		c1.991,7.968,7.968,14.938,15.936,16.933c23.903,5.974,39.839,25.895,48.804,40.836c9.962,16.933,16.933,38.845,16.933,56.771
		C419.605,696.828,416.616,703.799,408.649,710.769L408.649,710.769L408.649,710.769z M249.287,295.432v-2.988
		c0-25.896-8.965-56.773-23.905-81.673c-11.952-19.919-26.892-35.856-43.824-46.813c8.963-13.944,12.947-30.877,12.947-46.813
		c0-48.805-38.844-88.646-87.648-88.646c-48.805,0-88.646,39.84-88.646,88.646c0,15.936,4.979,32.868,12.948,46.813
		c-16.932,10.956-31.873,26.893-43.825,46.813c-14.94,24.9-23.905,55.777-23.905,81.673c0,0.997,0,1.993,0.997,2.988
		c0,3.984,3.984,22.909,24.9,41.833c25.896,23.905,65.736,35.856,117.53,35.856c50.796,0,90.637-11.951,116.533-35.856
		C244.306,318.341,248.292,299.416,249.287,295.432L249.287,295.432L249.287,295.432z M194.506,306.388
		c-11.952,10.956-37.848,23.905-87.648,23.905c-80.678,0-97.61-32.868-100.598-40.837c0.997-17.928,6.972-39.84,17.928-56.773
		c8.964-14.94,23.904-34.859,48.805-40.836c7.968-1.993,13.944-8.965,14.94-16.933c1.993-7.968-0.996-15.936-7.968-20.917
		c-11.952-8.963-18.924-22.908-18.924-36.852c0-25.896,19.92-45.817,45.817-45.817c24.9,0,44.82,19.921,44.82,45.817
		c0,13.944-6.972,27.889-18.924,36.852c-5.977,4.981-9.96,12.949-7.968,20.917c0.996,7.968,6.972,14.94,14.94,16.933
		c24.9,5.977,39.84,25.896,48.805,40.836c10.956,16.933,16.932,38.845,17.928,56.773
		C205.462,292.444,202.475,298.42,194.506,306.388L194.506,306.388L194.506,306.388z M609.846,163.958
		c8.962-13.944,13.944-30.877,13.944-46.813c0-48.805-39.842-88.646-88.646-88.646c-48.807,0-88.646,39.84-88.646,88.646
		c0,15.936,4.979,32.868,13.944,46.813c-17.93,10.956-32.871,26.893-44.821,46.813c-13.944,24.9-22.909,55.777-22.909,81.673v2.988
		c0.997,3.984,4.979,22.909,25.897,41.833c25.895,23.905,64.739,35.856,116.534,35.856c51.792,0,90.637-11.951,116.531-35.856
		c20.918-18.924,25.897-37.849,25.897-41.833c0-0.996,0.997-1.991,0.997-2.988c0-25.896-8.965-56.773-23.906-81.673
		C642.714,190.851,627.773,174.914,609.846,163.958L609.846,163.958L609.846,163.958z M535.145,330.293
		c-80.678,0-96.613-32.868-99.602-40.837c0-17.928,6.971-39.84,16.93-56.773c8.965-14.94,24.9-34.859,48.807-40.836
		c7.968-1.993,13.944-8.965,15.936-16.933c0.997-7.968-1.991-15.936-8.965-20.917c-11.95-8.963-18.924-22.908-18.924-36.852
		c0-25.896,20.918-45.817,45.818-45.817s45.815,19.921,45.815,45.817c0,13.944-6.971,27.889-18.924,36.852
		c-6.974,4.981-9.962,12.949-8.965,20.917c1.991,7.968,7.968,14.94,15.936,16.933c23.906,5.977,39.842,25.896,48.807,40.836
		c9.959,16.933,16.933,38.845,16.933,56.773C632.752,297.425,615.823,330.293,535.145,330.293L535.145,330.293L535.145,330.293z
		 M321,419.935c11.953,0,20.915-8.965,20.915-20.918v-36.852l31.874-17.929c9.959-5.977,13.944-18.924,7.968-28.884
		c-5.977-10.956-18.924-13.944-28.886-7.969L321,325.313l-31.873-17.93c-9.96-5.975-22.908-2.987-28.884,7.969
		c-5.977,9.96-2.988,22.908,7.968,28.884l30.877,17.929v36.852C299.088,410.97,309.049,419.935,321,419.935L321,419.935z"/>
</g>
</svg>
