<?xml version="1.0" encoding="utf-8"?>
<!-- Generator: Adobe Illustrator 16.0.0, SVG Export Plug-In . SVG Version: 6.00 Build 0)  -->
<!DOCTYPE svg PUBLIC "-//W3C//DTD SVG 1.1//EN" "http://www.w3.org/Graphics/SVG/1.1/DTD/svg11.dtd">
<svg version="1.1" id="Layer_1" xmlns="http://www.w3.org/2000/svg" xmlns:xlink="http://www.w3.org/1999/xlink" x="0px" y="0px"
	 width="908.211px" height="750px" viewBox="-148 22 908.211 750" enable-background="new -148 22 908.211 750"
	 xml:space="preserve">
<g>
	<path d="M-104.942,330.411c0-46.062,28.037-86.115,69.092-103.137h1.001c11.015-5.007,22.029-7.009,33.044-8.011h1.001h2.002H2.2
		h2.003h2.002h530.708c62.083,0,112.149,50.066,112.149,111.148v49.065h-59.078c-4.006,0-9.013,1.001-13.018,2.003
		c-30.04,6.008-53.071,33.044-53.071,64.085v57.076c0,36.048,30.04,66.088,66.089,66.088h59.078v49.066
		c0,61.081-50.066,111.147-112.149,111.147H6.206c-61.082,0-111.148-50.066-111.148-111.147V330.411L-104.942,330.411z
		 M321.626,80.077c25.033-10.014,48.064-15.02,68.091-15.02c37.05,0,66.088,17.022,87.116,54.072l27.036,57.076H89.317
		C172.427,141.158,275.565,99.103,321.626,80.077L321.626,80.077L321.626,80.077z M717.154,445.564v57.076
		c0,12.017-11.015,23.031-23.03,23.031h-24.032h-80.106c-13.018,0-23.031-11.015-23.031-23.031v-57.076
		c0-12.016,10.014-23.03,23.031-23.03h80.106h24.032C706.139,422.534,717.154,433.549,717.154,445.564L717.154,445.564
		L717.154,445.564z M6.206,772h530.708c86.115,0,155.207-69.092,155.207-154.205v-49.066h2.003c36.048,0,66.088-30.04,66.088-66.088
		v-57.076c0-36.048-30.04-66.088-66.088-66.088h-2.003v-49.065c0-80.106-62.083-147.196-141.188-154.206l-36.048-76.102v-2.002
		C485.845,48.034,442.788,22,389.717,22c-26.034,0-54.072,6.008-84.112,18.024C225.498,73.068-20.83,174.203-48.867,186.219
		C-106.945,208.248-148,264.323-148,330.411v287.384C-148,702.908-78.907,772,6.206,772L6.206,772z"/>
</g>
</svg>
